﻿	<html>
    <head>
    <meta http-equiv='Content-Type' content='text/html; charset=windows-874'>
    <style type='text/css'>
    <!--
    body,td,th {
        font-family: MS Sans Serif, AngsanaDSE;
        font-size: x-small;
        color: #333333;
    }
    -->
    </style>
    </head>
    <body>
            <center>
                <table  border='0' cellspacing='0' cellpadding='0' width='728'>
                    <tr align='center' valign='top'>
                        <td>
                            <table  border='0' cellspacing='0' cellpadding='0'>
                                    <tr align='left' valign='top'>
                                        <td><img src='[PATHFILESERVER]/IRPlus/images/logo.jpg' width='179' height='136'></td>
                                        <td>
                                                <table width='100%'  border='0' cellspacing='0' cellpadding='0'>
                                                        <tr><td width='256' rowspan='2' align='left' valign='top'>
                                                                <img src='[PATHFILESERVER]/IRPlus/images/logo_text.jpg' width='256' height='136'></td>
                                                        </tr>
                                                        <tr><td align='left' valign='bottom'>
                                                                <img src='[PATHFILESERVER]/IRPlus/images/logo_text01.jpg' width='293' height='95'></td>
                                                        </tr>
                                       </table></td>
                                </tr>
                          </table></td>
                 </tr>
                 <tr align='left' valign='top'>
                        <td>
                                <table  border='0' cellspacing='10' cellpadding='10'>
                                        <tr align='left' valign='top'>
                                            <td><font face='Ms Sans Serif' color=#000000 size=2>
                                                    <b>สวัสดีค่ะ ท่านผู้บริหาร [company_name]</b></font></td>
                                        </tr>
                                        <tr align='left' valign='top'>
                                                <td><font face='Ms Sans Serif' color=#000000 size=1>
                                                         วันนี้ทาง [share] ได้มีข่าวความเคลื่อนไหว ลงใน<br>
                                                          [clipping_type_source]</font></td>
                                         </tr>
                                        <tr align='left' valign='top'>
                                                <td><font face='Ms Sans Serif' color=#000000 size=1>
                                                        ซึ่งท่านผู้บริหารสามารถเข้าไปดูข่าวได้ที่ เว็บไซต์นักลงทุนสัมพันธ์ โดยไปที่เมนู ห้องข่าว > ข่าวสารบริษัท > ข่าวตัดปะ<br>
                                                        หรือที่ลิงค์ <a href='[clipping_url]' target='_blank'>[clipping_url]</a> ค่ะ
                                                        </font></td>
                                         </tr>	
                                         <tr align='left' valign='top'>
                                                <td><font face='Ms Sans Serif' color=#000000 size=1>	
                                                        Best Regards,<br />
                                                        [ircontact_email]<br />
                                                        Tel : [service_tel]<br />
                                                        FAX : [office_fax]</font></td>
                                        </tr>
                               </table></td>
                           </tr></table></center>
		</body></html>