2004.11.11 00:06 B Z:\newefinancethai\irdata\add_contact.asp --> 203.152.50.201 /eft/newefinancethai/irdata add_contact.asp
2004.11.11 00:06 B Z:\newefinancethai\irdata\add_contact.asp.bak --> 203.152.50.201 /eft/newefinancethai/irdata add_contact.asp.bak
2004.11.11 00:06 B Z:\newefinancethai\irdata\answer_listed.asp --> 203.152.50.201 /eft/newefinancethai/irdata answer_listed.asp
2004.11.11 00:06 B Z:\newefinancethai\irdata\answer_listed.asp.bak --> 203.152.50.201 /eft/newefinancethai/irdata answer_listed.asp.bak
2004.11.11 00:06 B Z:\newefinancethai\irdata\contact_detail.asp --> 203.152.50.201 /eft/newefinancethai/irdata contact_detail.asp
2004.11.11 00:06 B Z:\newefinancethai\irdata\contact_detail.asp.bak --> 203.152.50.201 /eft/newefinancethai/irdata contact_detail.asp.bak
2004.11.11 00:06 B Z:\newefinancethai\irdata\contact_listed.asp --> 203.152.50.201 /eft/newefinancethai/irdata contact_listed.asp
2004.11.11 00:06 B Z:\newefinancethai\irdata\contact_listed.asp.bak --> 203.152.50.201 /eft/newefinancethai/irdata contact_listed.asp.bak
2004.11.11 00:06 B Z:\newefinancethai\irdata\login.asp --> 203.152.50.201 /eft/newefinancethai/irdata login.asp
2004.11.11 00:06 B Z:\newefinancethai\irdata\login.asp.bak --> 203.152.50.201 /eft/newefinancethai/irdata login.asp.bak
2005.02.16 09:32 B W:\contactlisted\add_contact.asp --> 192.168.249.1 /eft/contactlisted add_contact.asp
2005.02.16 09:32 B W:\contactlisted\add_contact.asp.bak --> 192.168.249.1 /eft/contactlisted add_contact.asp.bak
2005.02.16 09:32 B W:\contactlisted\add_newlisted.asp --> 192.168.249.1 /eft/contactlisted add_newlisted.asp
2005.02.16 09:32 B W:\contactlisted\add_newlisted.asp.bak --> 192.168.249.1 /eft/contactlisted add_newlisted.asp.bak
2005.02.16 09:32 B W:\contactlisted\answer_listed.asp --> 192.168.249.1 /eft/contactlisted answer_listed.asp
2005.02.16 09:32 B W:\contactlisted\answer_listed.asp.bak --> 192.168.249.1 /eft/contactlisted answer_listed.asp.bak
2005.02.16 09:32 B W:\contactlisted\calendar_event.asp --> 192.168.249.1 /eft/contactlisted calendar_event.asp
2005.02.16 09:32 B W:\contactlisted\calendar_event.asp.bak --> 192.168.249.1 /eft/contactlisted calendar_event.asp.bak
2005.02.16 09:32 B W:\contactlisted\confirmuser.asp --> 192.168.249.1 /eft/contactlisted confirmuser.asp
2005.02.16 09:32 B W:\contactlisted\confirmuser.asp.bak --> 192.168.249.1 /eft/contactlisted confirmuser.asp.bak
2005.02.16 09:32 B W:\contactlisted\contact_detail.asp --> 192.168.249.1 /eft/contactlisted contact_detail.asp
2005.02.16 09:32 B W:\contactlisted\contact_detail.asp.bak --> 192.168.249.1 /eft/contactlisted contact_detail.asp.bak
2005.02.16 09:32 B W:\contactlisted\contact_listed.asp --> 192.168.249.1 /eft/contactlisted contact_listed.asp
2005.02.16 09:32 B W:\contactlisted\contact_listed.asp.bak --> 192.168.249.1 /eft/contactlisted contact_listed.asp.bak
2005.02.16 09:32 B W:\contactlisted\edit_ans.asp --> 192.168.249.1 /eft/contactlisted edit_ans.asp
2005.02.16 09:32 B W:\contactlisted\edit_ans.asp.bak --> 192.168.249.1 /eft/contactlisted edit_ans.asp.bak
2005.02.16 09:32 B W:\contactlisted\edit_question.asp --> 192.168.249.1 /eft/contactlisted edit_question.asp
2005.02.16 09:32 B W:\contactlisted\edit_question.asp.bak --> 192.168.249.1 /eft/contactlisted edit_question.asp.bak
2005.02.16 09:32 B W:\contactlisted\login.asp --> 192.168.249.1 /eft/contactlisted login.asp
2005.02.16 09:32 B W:\contactlisted\login.asp.bak --> 192.168.249.1 /eft/contactlisted login.asp.bak
2005.02.16 09:32 B W:\contactlisted\logoff.asp --> 192.168.249.1 /eft/contactlisted logoff.asp
2005.02.16 09:32 B W:\contactlisted\memberalert.asp --> 192.168.249.1 /eft/contactlisted memberalert.asp
2005.02.16 09:32 B W:\contactlisted\memberalert.asp.bak --> 192.168.249.1 /eft/contactlisted memberalert.asp.bak
2005.02.16 09:32 B W:\contactlisted\newmember.asp --> 192.168.249.1 /eft/contactlisted newmember.asp
2005.02.16 09:32 B W:\contactlisted\newmember.asp.bak --> 192.168.249.1 /eft/contactlisted newmember.asp.bak
2005.02.16 09:32 B W:\contactlisted\test.asp.bak --> 192.168.249.1 /eft/contactlisted test.asp.bak
2005.02.16 09:32 B W:\contactlisted\WS_FTP.LOG --> 192.168.249.1 /eft/contactlisted WS_FTP.LOG
2005.02.16 09:33 B W:\contactlisted\add_contact.asp --> 203.144.167.52 /eft/contactlisted add_contact.asp
2005.02.16 09:33 B W:\contactlisted\add_contact.asp.bak --> 203.144.167.52 /eft/contactlisted add_contact.asp.bak
2005.02.16 09:33 B W:\contactlisted\add_newlisted.asp --> 203.144.167.52 /eft/contactlisted add_newlisted.asp
2005.02.16 09:33 B W:\contactlisted\add_newlisted.asp.bak --> 203.144.167.52 /eft/contactlisted add_newlisted.asp.bak
2005.02.16 09:33 B W:\contactlisted\answer_listed.asp --> 203.144.167.52 /eft/contactlisted answer_listed.asp
2005.02.16 09:33 B W:\contactlisted\answer_listed.asp.bak --> 203.144.167.52 /eft/contactlisted answer_listed.asp.bak
2005.02.16 09:33 B W:\contactlisted\calendar_event.asp --> 203.144.167.52 /eft/contactlisted calendar_event.asp
2005.02.16 09:33 B W:\contactlisted\calendar_event.asp.bak --> 203.144.167.52 /eft/contactlisted calendar_event.asp.bak
2005.02.16 09:33 B W:\contactlisted\confirmuser.asp --> 203.144.167.52 /eft/contactlisted confirmuser.asp
2005.02.16 09:33 B W:\contactlisted\confirmuser.asp.bak --> 203.144.167.52 /eft/contactlisted confirmuser.asp.bak
2005.02.16 09:33 B W:\contactlisted\contact_detail.asp --> 203.144.167.52 /eft/contactlisted contact_detail.asp
2005.02.16 09:33 B W:\contactlisted\contact_detail.asp.bak --> 203.144.167.52 /eft/contactlisted contact_detail.asp.bak
2005.02.16 09:33 B W:\contactlisted\contact_listed.asp --> 203.144.167.52 /eft/contactlisted contact_listed.asp
2005.02.16 09:34 B W:\contactlisted\contact_listed.asp.bak --> 203.144.167.52 /eft/contactlisted contact_listed.asp.bak
2005.02.16 09:34 B W:\contactlisted\edit_ans.asp --> 203.144.167.52 /eft/contactlisted edit_ans.asp
2005.02.16 09:34 B W:\contactlisted\edit_ans.asp.bak --> 203.144.167.52 /eft/contactlisted edit_ans.asp.bak
2005.02.16 09:34 B W:\contactlisted\edit_question.asp --> 203.144.167.52 /eft/contactlisted edit_question.asp
2005.02.16 09:34 B W:\contactlisted\edit_question.asp.bak --> 203.144.167.52 /eft/contactlisted edit_question.asp.bak
2005.02.16 09:34 B W:\contactlisted\login.asp --> 203.144.167.52 /eft/contactlisted login.asp
2005.02.16 09:34 B W:\contactlisted\login.asp.bak --> 203.144.167.52 /eft/contactlisted login.asp.bak
2005.02.16 09:34 B W:\contactlisted\logoff.asp --> 203.144.167.52 /eft/contactlisted logoff.asp
2005.02.16 09:34 B W:\contactlisted\memberalert.asp --> 203.144.167.52 /eft/contactlisted memberalert.asp
2005.02.16 09:34 B W:\contactlisted\memberalert.asp.bak --> 203.144.167.52 /eft/contactlisted memberalert.asp.bak
2005.02.16 09:34 B W:\contactlisted\newmember.asp --> 203.144.167.52 /eft/contactlisted newmember.asp
2005.02.16 09:34 B W:\contactlisted\newmember.asp.bak --> 203.144.167.52 /eft/contactlisted newmember.asp.bak
2005.02.16 09:34 B W:\contactlisted\test.asp.bak --> 203.144.167.52 /eft/contactlisted test.asp.bak
2005.02.16 09:34 B W:\contactlisted\WS_FTP.LOG --> 203.144.167.52 /eft/contactlisted WS_FTP.LOG
2005.02.16 09:36 B W:\contactlisted\add_contact.asp --> 192.23.6.101 /eft/contactlisted add_contact.asp
2005.02.16 09:36 B W:\contactlisted\add_contact.asp.bak --> 192.23.6.101 /eft/contactlisted add_contact.asp.bak
2005.02.16 09:36 B W:\contactlisted\add_newlisted.asp --> 192.23.6.101 /eft/contactlisted add_newlisted.asp
2005.02.16 09:36 B W:\contactlisted\add_newlisted.asp.bak --> 192.23.6.101 /eft/contactlisted add_newlisted.asp.bak
2005.02.16 09:36 B W:\contactlisted\answer_listed.asp --> 192.23.6.101 /eft/contactlisted answer_listed.asp
2005.02.16 09:36 B W:\contactlisted\answer_listed.asp.bak --> 192.23.6.101 /eft/contactlisted answer_listed.asp.bak
2005.02.16 09:36 B W:\contactlisted\calendar_event.asp --> 192.23.6.101 /eft/contactlisted calendar_event.asp
2005.02.16 09:36 B W:\contactlisted\calendar_event.asp.bak --> 192.23.6.101 /eft/contactlisted calendar_event.asp.bak
2005.02.16 09:36 B W:\contactlisted\confirmuser.asp --> 192.23.6.101 /eft/contactlisted confirmuser.asp
2005.02.16 09:36 B W:\contactlisted\confirmuser.asp.bak --> 192.23.6.101 /eft/contactlisted confirmuser.asp.bak
2005.02.16 09:36 B W:\contactlisted\contact_detail.asp --> 192.23.6.101 /eft/contactlisted contact_detail.asp
2005.02.16 09:36 B W:\contactlisted\contact_detail.asp.bak --> 192.23.6.101 /eft/contactlisted contact_detail.asp.bak
2005.02.16 09:36 B W:\contactlisted\contact_listed.asp --> 192.23.6.101 /eft/contactlisted contact_listed.asp
2005.02.16 09:36 B W:\contactlisted\contact_listed.asp.bak --> 192.23.6.101 /eft/contactlisted contact_listed.asp.bak
2005.02.16 09:36 B W:\contactlisted\edit_ans.asp --> 192.23.6.101 /eft/contactlisted edit_ans.asp
2005.02.16 09:36 B W:\contactlisted\edit_ans.asp.bak --> 192.23.6.101 /eft/contactlisted edit_ans.asp.bak
2005.02.16 09:36 B W:\contactlisted\edit_question.asp --> 192.23.6.101 /eft/contactlisted edit_question.asp
2005.02.16 09:36 B W:\contactlisted\edit_question.asp.bak --> 192.23.6.101 /eft/contactlisted edit_question.asp.bak
2005.02.16 09:36 B W:\contactlisted\login.asp --> 192.23.6.101 /eft/contactlisted login.asp
2005.02.16 09:36 B W:\contactlisted\login.asp.bak --> 192.23.6.101 /eft/contactlisted login.asp.bak
2005.02.16 09:36 B W:\contactlisted\logoff.asp --> 192.23.6.101 /eft/contactlisted logoff.asp
2005.02.16 09:36 B W:\contactlisted\memberalert.asp --> 192.23.6.101 /eft/contactlisted memberalert.asp
2005.02.16 09:36 B W:\contactlisted\memberalert.asp.bak --> 192.23.6.101 /eft/contactlisted memberalert.asp.bak
2005.02.16 09:36 B W:\contactlisted\newmember.asp --> 192.23.6.101 /eft/contactlisted newmember.asp
2005.02.16 09:36 B W:\contactlisted\newmember.asp.bak --> 192.23.6.101 /eft/contactlisted newmember.asp.bak
2005.02.16 09:37 B W:\contactlisted\test.asp.bak --> 192.23.6.101 /eft/contactlisted test.asp.bak
2005.02.16 09:37 B W:\contactlisted\WS_FTP.LOG --> 192.23.6.101 /eft/contactlisted WS_FTP.LOG
2005.02.16 09:37 B W:\contactlisted\add_contact.asp --> 192.168.17.1 /eft/contactlisted add_contact.asp
2005.02.16 09:37 B W:\contactlisted\add_contact.asp.bak --> 192.168.17.1 /eft/contactlisted add_contact.asp.bak
2005.02.16 09:37 B W:\contactlisted\add_newlisted.asp --> 192.168.17.1 /eft/contactlisted add_newlisted.asp
2005.02.16 09:37 B W:\contactlisted\add_newlisted.asp.bak --> 192.168.17.1 /eft/contactlisted add_newlisted.asp.bak
2005.02.16 09:37 B W:\contactlisted\answer_listed.asp --> 192.168.17.1 /eft/contactlisted answer_listed.asp
2005.02.16 09:37 B W:\contactlisted\answer_listed.asp.bak --> 192.168.17.1 /eft/contactlisted answer_listed.asp.bak
2005.02.16 09:37 B W:\contactlisted\calendar_event.asp --> 192.168.17.1 /eft/contactlisted calendar_event.asp
2005.02.16 09:37 B W:\contactlisted\calendar_event.asp.bak --> 192.168.17.1 /eft/contactlisted calendar_event.asp.bak
2005.02.16 09:37 B W:\contactlisted\confirmuser.asp --> 192.168.17.1 /eft/contactlisted confirmuser.asp
2005.02.16 09:37 B W:\contactlisted\confirmuser.asp.bak --> 192.168.17.1 /eft/contactlisted confirmuser.asp.bak
2005.02.16 09:37 B W:\contactlisted\contact_detail.asp --> 192.168.17.1 /eft/contactlisted contact_detail.asp
2005.02.16 09:37 B W:\contactlisted\contact_detail.asp.bak --> 192.168.17.1 /eft/contactlisted contact_detail.asp.bak
2005.02.16 09:37 B W:\contactlisted\contact_listed.asp --> 192.168.17.1 /eft/contactlisted contact_listed.asp
2005.02.16 09:37 B W:\contactlisted\contact_listed.asp.bak --> 192.168.17.1 /eft/contactlisted contact_listed.asp.bak
2005.02.16 09:37 B W:\contactlisted\edit_ans.asp --> 192.168.17.1 /eft/contactlisted edit_ans.asp
2005.02.16 09:37 B W:\contactlisted\edit_ans.asp.bak --> 192.168.17.1 /eft/contactlisted edit_ans.asp.bak
2005.02.16 09:37 B W:\contactlisted\edit_question.asp --> 192.168.17.1 /eft/contactlisted edit_question.asp
2005.02.16 09:37 B W:\contactlisted\edit_question.asp.bak --> 192.168.17.1 /eft/contactlisted edit_question.asp.bak
2005.02.16 09:37 B W:\contactlisted\login.asp --> 192.168.17.1 /eft/contactlisted login.asp
2005.02.16 09:38 B W:\contactlisted\login.asp.bak --> 192.168.17.1 /eft/contactlisted login.asp.bak
2005.02.16 09:38 B W:\contactlisted\logoff.asp --> 192.168.17.1 /eft/contactlisted logoff.asp
2005.02.16 09:38 B W:\contactlisted\memberalert.asp --> 192.168.17.1 /eft/contactlisted memberalert.asp
2005.02.16 09:38 B W:\contactlisted\memberalert.asp.bak --> 192.168.17.1 /eft/contactlisted memberalert.asp.bak
2005.02.16 09:38 B W:\contactlisted\newmember.asp --> 192.168.17.1 /eft/contactlisted newmember.asp
2005.02.16 09:38 B W:\contactlisted\newmember.asp.bak --> 192.168.17.1 /eft/contactlisted newmember.asp.bak
2005.02.16 09:38 B W:\contactlisted\test.asp.bak --> 192.168.17.1 /eft/contactlisted test.asp.bak
2005.02.16 09:38 B W:\contactlisted\WS_FTP.LOG --> 192.168.17.1 /eft/contactlisted WS_FTP.LOG
2005.02.16 09:38 B W:\contactlisted\add_contact.asp --> 192.168.203.11 /eft/contactlisted add_contact.asp
2005.02.16 09:38 B W:\contactlisted\add_contact.asp.bak --> 192.168.203.11 /eft/contactlisted add_contact.asp.bak
2005.02.16 09:38 B W:\contactlisted\add_newlisted.asp --> 192.168.203.11 /eft/contactlisted add_newlisted.asp
2005.02.16 09:38 B W:\contactlisted\add_newlisted.asp.bak --> 192.168.203.11 /eft/contactlisted add_newlisted.asp.bak
2005.02.16 09:38 B W:\contactlisted\answer_listed.asp --> 192.168.203.11 /eft/contactlisted answer_listed.asp
2005.02.16 09:38 B W:\contactlisted\answer_listed.asp.bak --> 192.168.203.11 /eft/contactlisted answer_listed.asp.bak
2005.02.16 09:38 B W:\contactlisted\calendar_event.asp --> 192.168.203.11 /eft/contactlisted calendar_event.asp
2005.02.16 09:38 B W:\contactlisted\calendar_event.asp.bak --> 192.168.203.11 /eft/contactlisted calendar_event.asp.bak
2005.02.16 09:38 B W:\contactlisted\confirmuser.asp --> 192.168.203.11 /eft/contactlisted confirmuser.asp
2005.02.16 09:38 B W:\contactlisted\confirmuser.asp.bak --> 192.168.203.11 /eft/contactlisted confirmuser.asp.bak
2005.02.16 09:38 B W:\contactlisted\contact_detail.asp --> 192.168.203.11 /eft/contactlisted contact_detail.asp
2005.02.16 09:38 B W:\contactlisted\contact_detail.asp.bak --> 192.168.203.11 /eft/contactlisted contact_detail.asp.bak
2005.02.16 09:38 B W:\contactlisted\contact_listed.asp --> 192.168.203.11 /eft/contactlisted contact_listed.asp
2005.02.16 09:39 B W:\contactlisted\contact_listed.asp.bak --> 192.168.203.11 /eft/contactlisted contact_listed.asp.bak
2005.02.16 09:39 B W:\contactlisted\edit_ans.asp --> 192.168.203.11 /eft/contactlisted edit_ans.asp
2005.02.16 09:39 B W:\contactlisted\edit_ans.asp.bak --> 192.168.203.11 /eft/contactlisted edit_ans.asp.bak
2005.02.16 09:39 B W:\contactlisted\edit_question.asp --> 192.168.203.11 /eft/contactlisted edit_question.asp
2005.02.16 09:39 B W:\contactlisted\edit_question.asp.bak --> 192.168.203.11 /eft/contactlisted edit_question.asp.bak
2005.02.16 09:39 B W:\contactlisted\login.asp --> 192.168.203.11 /eft/contactlisted login.asp
2005.02.16 09:39 B W:\contactlisted\login.asp.bak --> 192.168.203.11 /eft/contactlisted login.asp.bak
2005.02.16 09:39 B W:\contactlisted\logoff.asp --> 192.168.203.11 /eft/contactlisted logoff.asp
2005.02.16 09:39 B W:\contactlisted\memberalert.asp --> 192.168.203.11 /eft/contactlisted memberalert.asp
2005.02.16 09:39 B W:\contactlisted\memberalert.asp.bak --> 192.168.203.11 /eft/contactlisted memberalert.asp.bak
2005.02.16 09:39 B W:\contactlisted\newmember.asp --> 192.168.203.11 /eft/contactlisted newmember.asp
2005.02.16 09:39 B W:\contactlisted\newmember.asp.bak --> 192.168.203.11 /eft/contactlisted newmember.asp.bak
2005.02.16 09:39 B W:\contactlisted\test.asp.bak --> 192.168.203.11 /eft/contactlisted test.asp.bak
2005.02.16 09:39 B W:\contactlisted\WS_FTP.LOG --> 192.168.203.11 /eft/contactlisted WS_FTP.LOG
2005.02.16 09:39 B W:\contactlisted\add_contact.asp --> 172.13.75.1 /eft/contactlisted add_contact.asp
2005.02.16 09:39 B W:\contactlisted\add_contact.asp.bak --> 172.13.75.1 /eft/contactlisted add_contact.asp.bak
2005.02.16 09:39 B W:\contactlisted\add_newlisted.asp --> 172.13.75.1 /eft/contactlisted add_newlisted.asp
2005.02.16 09:39 B W:\contactlisted\add_newlisted.asp.bak --> 172.13.75.1 /eft/contactlisted add_newlisted.asp.bak
2005.02.16 09:39 B W:\contactlisted\answer_listed.asp --> 172.13.75.1 /eft/contactlisted answer_listed.asp
2005.02.16 09:39 B W:\contactlisted\answer_listed.asp.bak --> 172.13.75.1 /eft/contactlisted answer_listed.asp.bak
2005.02.16 09:39 B W:\contactlisted\calendar_event.asp --> 172.13.75.1 /eft/contactlisted calendar_event.asp
2005.02.16 09:39 B W:\contactlisted\calendar_event.asp.bak --> 172.13.75.1 /eft/contactlisted calendar_event.asp.bak
2005.02.16 09:39 B W:\contactlisted\confirmuser.asp --> 172.13.75.1 /eft/contactlisted confirmuser.asp
2005.02.16 09:39 B W:\contactlisted\confirmuser.asp.bak --> 172.13.75.1 /eft/contactlisted confirmuser.asp.bak
2005.02.16 09:39 B W:\contactlisted\contact_detail.asp --> 172.13.75.1 /eft/contactlisted contact_detail.asp
2005.02.16 09:39 B W:\contactlisted\contact_detail.asp.bak --> 172.13.75.1 /eft/contactlisted contact_detail.asp.bak
2005.02.16 09:39 B W:\contactlisted\contact_listed.asp --> 172.13.75.1 /eft/contactlisted contact_listed.asp
2005.02.16 09:39 B W:\contactlisted\contact_listed.asp.bak --> 172.13.75.1 /eft/contactlisted contact_listed.asp.bak
2005.02.16 09:39 B W:\contactlisted\edit_ans.asp --> 172.13.75.1 /eft/contactlisted edit_ans.asp
2005.02.16 09:39 B W:\contactlisted\edit_ans.asp.bak --> 172.13.75.1 /eft/contactlisted edit_ans.asp.bak
2005.02.16 09:39 B W:\contactlisted\edit_question.asp --> 172.13.75.1 /eft/contactlisted edit_question.asp
2005.02.16 09:39 B W:\contactlisted\edit_question.asp.bak --> 172.13.75.1 /eft/contactlisted edit_question.asp.bak
2005.02.16 09:39 B W:\contactlisted\login.asp --> 172.13.75.1 /eft/contactlisted login.asp
2005.02.16 09:39 B W:\contactlisted\login.asp.bak --> 172.13.75.1 /eft/contactlisted login.asp.bak
2005.02.16 09:39 B W:\contactlisted\logoff.asp --> 172.13.75.1 /eft/contactlisted logoff.asp
2005.02.16 09:39 B W:\contactlisted\memberalert.asp --> 172.13.75.1 /eft/contactlisted memberalert.asp
2005.02.16 09:39 B W:\contactlisted\memberalert.asp.bak --> 172.13.75.1 /eft/contactlisted memberalert.asp.bak
2005.02.16 09:39 B W:\contactlisted\newmember.asp --> 172.13.75.1 /eft/contactlisted newmember.asp
2005.02.16 09:39 B W:\contactlisted\newmember.asp.bak --> 172.13.75.1 /eft/contactlisted newmember.asp.bak
2005.02.16 09:39 B W:\contactlisted\test.asp.bak --> 172.13.75.1 /eft/contactlisted test.asp.bak
2005.02.16 09:39 B W:\contactlisted\WS_FTP.LOG --> 172.13.75.1 /eft/contactlisted WS_FTP.LOG
2005.02.16 09:40 B W:\contactlisted\add_contact.asp --> 192.168.10.250 /eft/contactlisted add_contact.asp
2005.02.16 09:40 B W:\contactlisted\add_contact.asp.bak --> 192.168.10.250 /eft/contactlisted add_contact.asp.bak
2005.02.16 09:40 B W:\contactlisted\add_newlisted.asp --> 192.168.10.250 /eft/contactlisted add_newlisted.asp
2005.02.16 09:40 B W:\contactlisted\add_newlisted.asp.bak --> 192.168.10.250 /eft/contactlisted add_newlisted.asp.bak
2005.02.16 09:40 B W:\contactlisted\answer_listed.asp --> 192.168.10.250 /eft/contactlisted answer_listed.asp
2005.02.16 09:40 B W:\contactlisted\answer_listed.asp.bak --> 192.168.10.250 /eft/contactlisted answer_listed.asp.bak
2005.02.16 09:40 B W:\contactlisted\calendar_event.asp --> 192.168.10.250 /eft/contactlisted calendar_event.asp
2005.02.16 09:40 B W:\contactlisted\calendar_event.asp.bak --> 192.168.10.250 /eft/contactlisted calendar_event.asp.bak
2005.02.16 09:40 B W:\contactlisted\confirmuser.asp --> 192.168.10.250 /eft/contactlisted confirmuser.asp
2005.02.16 09:40 B W:\contactlisted\confirmuser.asp.bak --> 192.168.10.250 /eft/contactlisted confirmuser.asp.bak
2005.02.16 09:40 B W:\contactlisted\contact_detail.asp --> 192.168.10.250 /eft/contactlisted contact_detail.asp
2005.02.16 09:40 B W:\contactlisted\contact_detail.asp.bak --> 192.168.10.250 /eft/contactlisted contact_detail.asp.bak
2005.02.16 09:41 B W:\contactlisted\contact_listed.asp --> 192.168.10.250 /eft/contactlisted contact_listed.asp
2005.02.16 09:41 B W:\contactlisted\contact_listed.asp.bak --> 192.168.10.250 /eft/contactlisted contact_listed.asp.bak
2005.02.16 09:41 B W:\contactlisted\edit_ans.asp --> 192.168.10.250 /eft/contactlisted edit_ans.asp
2005.02.16 09:41 B W:\contactlisted\edit_ans.asp.bak --> 192.168.10.250 /eft/contactlisted edit_ans.asp.bak
2005.02.16 09:41 B W:\contactlisted\edit_question.asp --> 192.168.10.250 /eft/contactlisted edit_question.asp
2005.02.16 09:41 B W:\contactlisted\edit_question.asp.bak --> 192.168.10.250 /eft/contactlisted edit_question.asp.bak
2005.02.16 09:41 B W:\contactlisted\login.asp --> 192.168.10.250 /eft/contactlisted login.asp
2005.02.16 09:41 B W:\contactlisted\login.asp.bak --> 192.168.10.250 /eft/contactlisted login.asp.bak
2005.02.16 09:41 B W:\contactlisted\logoff.asp --> 192.168.10.250 /eft/contactlisted logoff.asp
2005.02.16 09:41 B W:\contactlisted\memberalert.asp --> 192.168.10.250 /eft/contactlisted memberalert.asp
2005.02.16 09:41 B W:\contactlisted\memberalert.asp.bak --> 192.168.10.250 /eft/contactlisted memberalert.asp.bak
2005.02.16 09:41 B W:\contactlisted\newmember.asp --> 192.168.10.250 /eft/contactlisted newmember.asp
2005.02.16 09:41 B W:\contactlisted\newmember.asp.bak --> 192.168.10.250 /eft/contactlisted newmember.asp.bak
2005.02.16 09:41 B W:\contactlisted\test.asp.bak --> 192.168.10.250 /eft/contactlisted test.asp.bak
2005.02.16 09:41 B W:\contactlisted\WS_FTP.LOG --> 192.168.10.250 /eft/contactlisted WS_FTP.LOG
2005.02.16 09:42 B W:\contactlisted\add_contact.asp --> 172.31.101.11 /eft/contactlisted add_contact.asp
2005.02.16 09:42 B W:\contactlisted\add_contact.asp.bak --> 172.31.101.11 /eft/contactlisted add_contact.asp.bak
2005.02.16 09:42 B W:\contactlisted\add_newlisted.asp --> 172.31.101.11 /eft/contactlisted add_newlisted.asp
2005.02.16 09:42 B W:\contactlisted\add_newlisted.asp.bak --> 172.31.101.11 /eft/contactlisted add_newlisted.asp.bak
2005.02.16 09:42 B W:\contactlisted\answer_listed.asp --> 172.31.101.11 /eft/contactlisted answer_listed.asp
2005.02.16 09:42 B W:\contactlisted\answer_listed.asp.bak --> 172.31.101.11 /eft/contactlisted answer_listed.asp.bak
2005.02.16 09:42 B W:\contactlisted\calendar_event.asp --> 172.31.101.11 /eft/contactlisted calendar_event.asp
2005.02.16 09:42 B W:\contactlisted\calendar_event.asp.bak --> 172.31.101.11 /eft/contactlisted calendar_event.asp.bak
2005.02.16 09:42 B W:\contactlisted\confirmuser.asp --> 172.31.101.11 /eft/contactlisted confirmuser.asp
2005.02.16 09:42 B W:\contactlisted\confirmuser.asp.bak --> 172.31.101.11 /eft/contactlisted confirmuser.asp.bak
2005.02.16 09:42 B W:\contactlisted\contact_detail.asp --> 172.31.101.11 /eft/contactlisted contact_detail.asp
2005.02.16 09:43 B W:\contactlisted\contact_detail.asp.bak --> 172.31.101.11 /eft/contactlisted contact_detail.asp.bak
2005.02.16 09:43 B W:\contactlisted\contact_listed.asp --> 172.31.101.11 /eft/contactlisted contact_listed.asp
2005.02.16 09:43 B W:\contactlisted\contact_listed.asp.bak --> 172.31.101.11 /eft/contactlisted contact_listed.asp.bak
2005.02.16 09:43 B W:\contactlisted\edit_ans.asp --> 172.31.101.11 /eft/contactlisted edit_ans.asp
2005.02.16 09:43 B W:\contactlisted\edit_ans.asp.bak --> 172.31.101.11 /eft/contactlisted edit_ans.asp.bak
2005.02.16 09:43 B W:\contactlisted\edit_question.asp --> 172.31.101.11 /eft/contactlisted edit_question.asp
2005.02.16 09:43 B W:\contactlisted\edit_question.asp.bak --> 172.31.101.11 /eft/contactlisted edit_question.asp.bak
2005.02.16 09:43 B W:\contactlisted\login.asp --> 172.31.101.11 /eft/contactlisted login.asp
2005.02.16 09:43 B W:\contactlisted\login.asp.bak --> 172.31.101.11 /eft/contactlisted login.asp.bak
2005.02.16 09:43 B W:\contactlisted\logoff.asp --> 172.31.101.11 /eft/contactlisted logoff.asp
2005.02.16 09:43 B W:\contactlisted\memberalert.asp --> 172.31.101.11 /eft/contactlisted memberalert.asp
2005.02.16 09:43 B W:\contactlisted\memberalert.asp.bak --> 172.31.101.11 /eft/contactlisted memberalert.asp.bak
2005.02.16 09:43 B W:\contactlisted\newmember.asp --> 172.31.101.11 /eft/contactlisted newmember.asp
2005.02.16 09:43 B W:\contactlisted\newmember.asp.bak --> 172.31.101.11 /eft/contactlisted newmember.asp.bak
2005.02.16 09:43 B W:\contactlisted\test.asp.bak --> 172.31.101.11 /eft/contactlisted test.asp.bak
2005.02.16 09:43 B W:\contactlisted\WS_FTP.LOG --> 172.31.101.11 /eft/contactlisted WS_FTP.LOG
2005.02.16 09:44 B W:\contactlisted\add_contact.asp --> 172.16.1.11 /eft/contactlisted add_contact.asp
2005.02.16 09:44 B W:\contactlisted\add_contact.asp.bak --> 172.16.1.11 /eft/contactlisted add_contact.asp.bak
2005.02.16 09:44 B W:\contactlisted\add_newlisted.asp --> 172.16.1.11 /eft/contactlisted add_newlisted.asp
2005.02.16 09:44 B W:\contactlisted\add_newlisted.asp.bak --> 172.16.1.11 /eft/contactlisted add_newlisted.asp.bak
2005.02.16 09:44 B W:\contactlisted\answer_listed.asp --> 172.16.1.11 /eft/contactlisted answer_listed.asp
2005.02.16 09:44 B W:\contactlisted\answer_listed.asp.bak --> 172.16.1.11 /eft/contactlisted answer_listed.asp.bak
2005.02.16 09:44 B W:\contactlisted\calendar_event.asp --> 172.16.1.11 /eft/contactlisted calendar_event.asp
2005.02.16 09:44 B W:\contactlisted\calendar_event.asp.bak --> 172.16.1.11 /eft/contactlisted calendar_event.asp.bak
2005.02.16 09:44 B W:\contactlisted\confirmuser.asp --> 172.16.1.11 /eft/contactlisted confirmuser.asp
2005.02.16 09:44 B W:\contactlisted\confirmuser.asp.bak --> 172.16.1.11 /eft/contactlisted confirmuser.asp.bak
2005.02.16 09:44 B W:\contactlisted\contact_detail.asp --> 172.16.1.11 /eft/contactlisted contact_detail.asp
2005.02.16 09:44 B W:\contactlisted\contact_detail.asp.bak --> 172.16.1.11 /eft/contactlisted contact_detail.asp.bak
2005.02.16 09:44 B W:\contactlisted\contact_listed.asp --> 172.16.1.11 /eft/contactlisted contact_listed.asp
2005.02.16 09:44 B W:\contactlisted\contact_listed.asp.bak --> 172.16.1.11 /eft/contactlisted contact_listed.asp.bak
2005.02.16 09:44 B W:\contactlisted\edit_ans.asp --> 172.16.1.11 /eft/contactlisted edit_ans.asp
2005.02.16 09:44 B W:\contactlisted\edit_ans.asp.bak --> 172.16.1.11 /eft/contactlisted edit_ans.asp.bak
2005.02.16 09:44 B W:\contactlisted\edit_question.asp --> 172.16.1.11 /eft/contactlisted edit_question.asp
2005.02.16 09:44 B W:\contactlisted\edit_question.asp.bak --> 172.16.1.11 /eft/contactlisted edit_question.asp.bak
2005.02.16 09:44 B W:\contactlisted\login.asp --> 172.16.1.11 /eft/contactlisted login.asp
2005.02.16 09:44 B W:\contactlisted\login.asp.bak --> 172.16.1.11 /eft/contactlisted login.asp.bak
2005.02.16 09:44 B W:\contactlisted\logoff.asp --> 172.16.1.11 /eft/contactlisted logoff.asp
2005.02.16 09:44 B W:\contactlisted\memberalert.asp --> 172.16.1.11 /eft/contactlisted memberalert.asp
2005.02.16 09:44 B W:\contactlisted\memberalert.asp.bak --> 172.16.1.11 /eft/contactlisted memberalert.asp.bak
2005.02.16 09:44 B W:\contactlisted\newmember.asp --> 172.16.1.11 /eft/contactlisted newmember.asp
2005.02.16 09:44 B W:\contactlisted\newmember.asp.bak --> 172.16.1.11 /eft/contactlisted newmember.asp.bak
2005.02.16 09:44 B W:\contactlisted\test.asp.bak --> 172.16.1.11 /eft/contactlisted test.asp.bak
2005.02.16 09:44 B W:\contactlisted\WS_FTP.LOG --> 172.16.1.11 /eft/contactlisted WS_FTP.LOG
2005.02.16 09:45 B W:\contactlisted\add_contact.asp --> 172.27.70.1 /eft/contactlisted add_contact.asp
2005.02.16 09:45 B W:\contactlisted\add_contact.asp.bak --> 172.27.70.1 /eft/contactlisted add_contact.asp.bak
2005.02.16 09:45 B W:\contactlisted\add_newlisted.asp --> 172.27.70.1 /eft/contactlisted add_newlisted.asp
2005.02.16 09:45 B W:\contactlisted\add_newlisted.asp.bak --> 172.27.70.1 /eft/contactlisted add_newlisted.asp.bak
2005.02.16 09:45 B W:\contactlisted\answer_listed.asp --> 172.27.70.1 /eft/contactlisted answer_listed.asp
2005.02.16 09:45 B W:\contactlisted\answer_listed.asp.bak --> 172.27.70.1 /eft/contactlisted answer_listed.asp.bak
2005.02.16 09:45 B W:\contactlisted\calendar_event.asp --> 172.27.70.1 /eft/contactlisted calendar_event.asp
2005.02.16 09:45 B W:\contactlisted\calendar_event.asp.bak --> 172.27.70.1 /eft/contactlisted calendar_event.asp.bak
2005.02.16 09:45 B W:\contactlisted\confirmuser.asp --> 172.27.70.1 /eft/contactlisted confirmuser.asp
2005.02.16 09:45 B W:\contactlisted\confirmuser.asp.bak --> 172.27.70.1 /eft/contactlisted confirmuser.asp.bak
2005.02.16 09:45 B W:\contactlisted\contact_detail.asp --> 172.27.70.1 /eft/contactlisted contact_detail.asp
2005.02.16 09:45 B W:\contactlisted\contact_detail.asp.bak --> 172.27.70.1 /eft/contactlisted contact_detail.asp.bak
2005.02.16 09:45 B W:\contactlisted\contact_listed.asp --> 172.27.70.1 /eft/contactlisted contact_listed.asp
2005.02.16 09:45 B W:\contactlisted\contact_listed.asp.bak --> 172.27.70.1 /eft/contactlisted contact_listed.asp.bak
2005.02.16 09:45 B W:\contactlisted\edit_ans.asp --> 172.27.70.1 /eft/contactlisted edit_ans.asp
2005.02.16 09:45 B W:\contactlisted\edit_ans.asp.bak --> 172.27.70.1 /eft/contactlisted edit_ans.asp.bak
2005.02.16 09:45 B W:\contactlisted\edit_question.asp --> 172.27.70.1 /eft/contactlisted edit_question.asp
2005.02.16 09:45 B W:\contactlisted\edit_question.asp.bak --> 172.27.70.1 /eft/contactlisted edit_question.asp.bak
2005.02.16 09:45 B W:\contactlisted\login.asp --> 172.27.70.1 /eft/contactlisted login.asp
2005.02.16 09:45 B W:\contactlisted\login.asp.bak --> 172.27.70.1 /eft/contactlisted login.asp.bak
2005.02.16 09:45 B W:\contactlisted\logoff.asp --> 172.27.70.1 /eft/contactlisted logoff.asp
2005.02.16 09:45 B W:\contactlisted\memberalert.asp --> 172.27.70.1 /eft/contactlisted memberalert.asp
2005.02.16 09:45 B W:\contactlisted\memberalert.asp.bak --> 172.27.70.1 /eft/contactlisted memberalert.asp.bak
2005.02.16 09:45 B W:\contactlisted\newmember.asp --> 172.27.70.1 /eft/contactlisted newmember.asp
2005.02.16 09:45 B W:\contactlisted\newmember.asp.bak --> 172.27.70.1 /eft/contactlisted newmember.asp.bak
2005.02.16 09:46 B W:\contactlisted\test.asp.bak --> 172.27.70.1 /eft/contactlisted test.asp.bak
2005.02.16 09:46 B W:\contactlisted\WS_FTP.LOG --> 172.27.70.1 /eft/contactlisted WS_FTP.LOG
2005.02.16 09:47 B W:\contactlisted\add_contact.asp --> 203.146.217.32 /eft/contactlisted add_contact.asp
2005.02.16 09:47 B W:\contactlisted\add_contact.asp.bak --> 203.146.217.32 /eft/contactlisted add_contact.asp.bak
2005.02.16 09:47 B W:\contactlisted\add_newlisted.asp --> 203.146.217.32 /eft/contactlisted add_newlisted.asp
2005.02.16 09:47 B W:\contactlisted\add_newlisted.asp.bak --> 203.146.217.32 /eft/contactlisted add_newlisted.asp.bak
2005.02.16 09:47 B W:\contactlisted\answer_listed.asp --> 203.146.217.32 /eft/contactlisted answer_listed.asp
2005.02.16 09:47 B W:\contactlisted\answer_listed.asp.bak --> 203.146.217.32 /eft/contactlisted answer_listed.asp.bak
2005.02.16 09:47 B W:\contactlisted\calendar_event.asp --> 203.146.217.32 /eft/contactlisted calendar_event.asp
2005.02.16 09:47 B W:\contactlisted\calendar_event.asp.bak --> 203.146.217.32 /eft/contactlisted calendar_event.asp.bak
2005.02.16 09:47 B W:\contactlisted\confirmuser.asp --> 203.146.217.32 /eft/contactlisted confirmuser.asp
2005.02.16 09:47 B W:\contactlisted\confirmuser.asp.bak --> 203.146.217.32 /eft/contactlisted confirmuser.asp.bak
2005.02.16 09:47 B W:\contactlisted\contact_detail.asp --> 203.146.217.32 /eft/contactlisted contact_detail.asp
2005.02.16 09:47 B W:\contactlisted\contact_detail.asp.bak --> 203.146.217.32 /eft/contactlisted contact_detail.asp.bak
2005.02.16 09:47 B W:\contactlisted\contact_listed.asp --> 203.146.217.32 /eft/contactlisted contact_listed.asp
2005.02.16 09:48 B W:\contactlisted\contact_listed.asp.bak --> 203.146.217.32 /eft/contactlisted contact_listed.asp.bak
2005.02.16 09:48 B W:\contactlisted\edit_ans.asp --> 203.146.217.32 /eft/contactlisted edit_ans.asp
2005.02.16 09:48 B W:\contactlisted\edit_ans.asp.bak --> 203.146.217.32 /eft/contactlisted edit_ans.asp.bak
2005.02.16 09:48 B W:\contactlisted\edit_question.asp --> 203.146.217.32 /eft/contactlisted edit_question.asp
2005.02.16 09:48 B W:\contactlisted\edit_question.asp.bak --> 203.146.217.32 /eft/contactlisted edit_question.asp.bak
2005.02.16 09:48 B W:\contactlisted\login.asp --> 203.146.217.32 /eft/contactlisted login.asp
2005.02.16 09:48 B W:\contactlisted\login.asp.bak --> 203.146.217.32 /eft/contactlisted login.asp.bak
2005.02.16 09:48 B W:\contactlisted\logoff.asp --> 203.146.217.32 /eft/contactlisted logoff.asp
2005.02.16 09:48 B W:\contactlisted\memberalert.asp --> 203.146.217.32 /eft/contactlisted memberalert.asp
2005.02.16 09:48 B W:\contactlisted\memberalert.asp.bak --> 203.146.217.32 /eft/contactlisted memberalert.asp.bak
2005.02.16 09:48 B W:\contactlisted\newmember.asp --> 203.146.217.32 /eft/contactlisted newmember.asp
2005.02.16 09:48 B W:\contactlisted\newmember.asp.bak --> 203.146.217.32 /eft/contactlisted newmember.asp.bak
2005.02.16 09:48 B W:\contactlisted\test.asp.bak --> 203.146.217.32 /eft/contactlisted test.asp.bak
2005.02.16 09:48 B W:\contactlisted\WS_FTP.LOG --> 203.146.217.32 /eft/contactlisted WS_FTP.LOG
2005.02.16 09:49 B W:\contactlisted\add_contact.asp --> 172.16.0.33 /eft/contactlisted add_contact.asp
2005.02.16 09:49 B W:\contactlisted\add_contact.asp.bak --> 172.16.0.33 /eft/contactlisted add_contact.asp.bak
2005.02.16 09:49 B W:\contactlisted\add_newlisted.asp --> 172.16.0.33 /eft/contactlisted add_newlisted.asp
2005.02.16 09:49 B W:\contactlisted\add_newlisted.asp.bak --> 172.16.0.33 /eft/contactlisted add_newlisted.asp.bak
2005.02.16 09:49 B W:\contactlisted\answer_listed.asp --> 172.16.0.33 /eft/contactlisted answer_listed.asp
2005.02.16 09:49 B W:\contactlisted\answer_listed.asp.bak --> 172.16.0.33 /eft/contactlisted answer_listed.asp.bak
2005.02.16 09:49 B W:\contactlisted\calendar_event.asp --> 172.16.0.33 /eft/contactlisted calendar_event.asp
2005.02.16 09:49 B W:\contactlisted\calendar_event.asp.bak --> 172.16.0.33 /eft/contactlisted calendar_event.asp.bak
2005.02.16 09:49 B W:\contactlisted\confirmuser.asp --> 172.16.0.33 /eft/contactlisted confirmuser.asp
2005.02.16 09:49 B W:\contactlisted\confirmuser.asp.bak --> 172.16.0.33 /eft/contactlisted confirmuser.asp.bak
2005.02.16 09:50 B W:\contactlisted\contact_detail.asp --> 172.16.0.33 /eft/contactlisted contact_detail.asp
2005.02.16 09:50 B W:\contactlisted\contact_detail.asp.bak --> 172.16.0.33 /eft/contactlisted contact_detail.asp.bak
2005.02.16 09:50 B W:\contactlisted\contact_listed.asp --> 172.16.0.33 /eft/contactlisted contact_listed.asp
2005.02.16 09:50 B W:\contactlisted\contact_listed.asp.bak --> 172.16.0.33 /eft/contactlisted contact_listed.asp.bak
2005.02.16 09:50 B W:\contactlisted\edit_ans.asp --> 172.16.0.33 /eft/contactlisted edit_ans.asp
2005.02.16 09:50 B W:\contactlisted\edit_ans.asp.bak --> 172.16.0.33 /eft/contactlisted edit_ans.asp.bak
2005.02.16 09:50 B W:\contactlisted\edit_question.asp --> 172.16.0.33 /eft/contactlisted edit_question.asp
2005.02.16 09:50 B W:\contactlisted\edit_question.asp.bak --> 172.16.0.33 /eft/contactlisted edit_question.asp.bak
2005.02.16 09:50 B W:\contactlisted\login.asp --> 172.16.0.33 /eft/contactlisted login.asp
2005.02.16 09:50 B W:\contactlisted\login.asp.bak --> 172.16.0.33 /eft/contactlisted login.asp.bak
2005.02.16 09:50 B W:\contactlisted\logoff.asp --> 172.16.0.33 /eft/contactlisted logoff.asp
2005.02.16 09:50 B W:\contactlisted\memberalert.asp --> 172.16.0.33 /eft/contactlisted memberalert.asp
2005.02.16 09:50 B W:\contactlisted\memberalert.asp.bak --> 172.16.0.33 /eft/contactlisted memberalert.asp.bak
2005.02.16 09:50 B W:\contactlisted\newmember.asp --> 172.16.0.33 /eft/contactlisted newmember.asp
2005.02.16 09:50 B W:\contactlisted\newmember.asp.bak --> 172.16.0.33 /eft/contactlisted newmember.asp.bak
2005.02.16 09:50 B W:\contactlisted\test.asp.bak --> 172.16.0.33 /eft/contactlisted test.asp.bak
2005.02.16 09:50 B W:\contactlisted\WS_FTP.LOG --> 172.16.0.33 /eft/contactlisted WS_FTP.LOG
2005.02.16 09:56 B W:\contactlisted\add_contact.asp --> 172.25.20.81 /eft/contactlisted add_contact.asp
2005.02.16 09:56 B W:\contactlisted\add_contact.asp.bak --> 172.25.20.81 /eft/contactlisted add_contact.asp.bak
2005.02.16 09:56 B W:\contactlisted\add_newlisted.asp --> 172.25.20.81 /eft/contactlisted add_newlisted.asp
2005.02.16 09:56 B W:\contactlisted\add_newlisted.asp.bak --> 172.25.20.81 /eft/contactlisted add_newlisted.asp.bak
2005.02.16 09:56 B W:\contactlisted\answer_listed.asp --> 172.25.20.81 /eft/contactlisted answer_listed.asp
2005.02.16 09:56 B W:\contactlisted\answer_listed.asp.bak --> 172.25.20.81 /eft/contactlisted answer_listed.asp.bak
2005.02.16 09:56 B W:\contactlisted\calendar_event.asp --> 172.25.20.81 /eft/contactlisted calendar_event.asp
2005.02.16 09:56 B W:\contactlisted\calendar_event.asp.bak --> 172.25.20.81 /eft/contactlisted calendar_event.asp.bak
2005.02.16 09:56 B W:\contactlisted\confirmuser.asp --> 172.25.20.81 /eft/contactlisted confirmuser.asp
2005.02.16 09:56 B W:\contactlisted\confirmuser.asp.bak --> 172.25.20.81 /eft/contactlisted confirmuser.asp.bak
2005.02.16 09:56 B W:\contactlisted\contact_detail.asp --> 172.25.20.81 /eft/contactlisted contact_detail.asp
2005.02.16 09:56 B W:\contactlisted\contact_detail.asp.bak --> 172.25.20.81 /eft/contactlisted contact_detail.asp.bak
2005.02.16 09:56 B W:\contactlisted\contact_listed.asp --> 172.25.20.81 /eft/contactlisted contact_listed.asp
2005.02.16 09:56 B W:\contactlisted\contact_listed.asp.bak --> 172.25.20.81 /eft/contactlisted contact_listed.asp.bak
2005.02.16 09:56 B W:\contactlisted\edit_ans.asp --> 172.25.20.81 /eft/contactlisted edit_ans.asp
2005.02.16 09:56 B W:\contactlisted\edit_ans.asp.bak --> 172.25.20.81 /eft/contactlisted edit_ans.asp.bak
2005.02.16 09:56 B W:\contactlisted\edit_question.asp --> 172.25.20.81 /eft/contactlisted edit_question.asp
2005.02.16 09:56 B W:\contactlisted\edit_question.asp.bak --> 172.25.20.81 /eft/contactlisted edit_question.asp.bak
2005.02.16 09:56 B W:\contactlisted\login.asp --> 172.25.20.81 /eft/contactlisted login.asp
2005.02.16 09:56 B W:\contactlisted\login.asp.bak --> 172.25.20.81 /eft/contactlisted login.asp.bak
2005.02.16 09:56 B W:\contactlisted\logoff.asp --> 172.25.20.81 /eft/contactlisted logoff.asp
2005.02.16 09:56 B W:\contactlisted\memberalert.asp --> 172.25.20.81 /eft/contactlisted memberalert.asp
2005.02.16 09:56 B W:\contactlisted\memberalert.asp.bak --> 172.25.20.81 /eft/contactlisted memberalert.asp.bak
2005.02.16 09:56 B W:\contactlisted\newmember.asp --> 172.25.20.81 /eft/contactlisted newmember.asp
2005.02.16 09:56 B W:\contactlisted\newmember.asp.bak --> 172.25.20.81 /eft/contactlisted newmember.asp.bak
2005.02.16 09:56 B W:\contactlisted\test.asp.bak --> 172.25.20.81 /eft/contactlisted test.asp.bak
2005.02.16 09:57 B W:\contactlisted\WS_FTP.LOG --> 172.25.20.81 /eft/contactlisted WS_FTP.LOG
2005.02.16 09:58 B W:\contactlisted\add_contact.asp --> 203.152.50.201 /eft/contactlisted add_contact.asp
2005.02.16 09:58 B W:\contactlisted\add_contact.asp.bak --> 203.152.50.201 /eft/contactlisted add_contact.asp.bak
2005.02.16 09:58 B W:\contactlisted\add_newlisted.asp --> 203.152.50.201 /eft/contactlisted add_newlisted.asp
2005.02.16 09:58 B W:\contactlisted\add_newlisted.asp.bak --> 203.152.50.201 /eft/contactlisted add_newlisted.asp.bak
2005.02.16 09:58 B W:\contactlisted\answer_listed.asp --> 203.152.50.201 /eft/contactlisted answer_listed.asp
2005.02.16 09:58 B W:\contactlisted\answer_listed.asp.bak --> 203.152.50.201 /eft/contactlisted answer_listed.asp.bak
2005.02.16 09:58 B W:\contactlisted\calendar_event.asp --> 203.152.50.201 /eft/contactlisted calendar_event.asp
2005.02.16 09:58 B W:\contactlisted\calendar_event.asp.bak --> 203.152.50.201 /eft/contactlisted calendar_event.asp.bak
2005.02.16 09:58 B W:\contactlisted\confirmuser.asp --> 203.152.50.201 /eft/contactlisted confirmuser.asp
2005.02.16 09:58 B W:\contactlisted\confirmuser.asp.bak --> 203.152.50.201 /eft/contactlisted confirmuser.asp.bak
2005.02.16 09:58 B W:\contactlisted\contact_detail.asp --> 203.152.50.201 /eft/contactlisted contact_detail.asp
2005.02.16 09:58 B W:\contactlisted\contact_detail.asp.bak --> 203.152.50.201 /eft/contactlisted contact_detail.asp.bak
2005.02.16 09:58 B W:\contactlisted\contact_listed.asp --> 203.152.50.201 /eft/contactlisted contact_listed.asp
2005.02.16 09:59 B W:\contactlisted\contact_listed.asp.bak --> 203.152.50.201 /eft/contactlisted contact_listed.asp.bak
2005.02.16 09:59 B W:\contactlisted\edit_ans.asp --> 203.152.50.201 /eft/contactlisted edit_ans.asp
2005.02.16 09:59 B W:\contactlisted\edit_ans.asp.bak --> 203.152.50.201 /eft/contactlisted edit_ans.asp.bak
2005.02.16 09:59 B W:\contactlisted\edit_question.asp --> 203.152.50.201 /eft/contactlisted edit_question.asp
2005.02.16 09:59 B W:\contactlisted\edit_question.asp.bak --> 203.152.50.201 /eft/contactlisted edit_question.asp.bak
2005.02.16 09:59 B W:\contactlisted\login.asp --> 203.152.50.201 /eft/contactlisted login.asp
2005.02.16 09:59 B W:\contactlisted\login.asp.bak --> 203.152.50.201 /eft/contactlisted login.asp.bak
2005.02.16 09:59 B W:\contactlisted\logoff.asp --> 203.152.50.201 /eft/contactlisted logoff.asp
2005.02.16 09:59 B W:\contactlisted\memberalert.asp --> 203.152.50.201 /eft/contactlisted memberalert.asp
2005.02.16 09:59 B W:\contactlisted\memberalert.asp.bak --> 203.152.50.201 /eft/contactlisted memberalert.asp.bak
2005.02.16 09:59 B W:\contactlisted\newmember.asp --> 203.152.50.201 /eft/contactlisted newmember.asp
2005.02.16 09:59 B W:\contactlisted\newmember.asp.bak --> 203.152.50.201 /eft/contactlisted newmember.asp.bak
2005.02.16 09:59 B W:\contactlisted\test.asp.bak --> 203.152.50.201 /eft/contactlisted test.asp.bak
2005.02.16 09:59 B W:\contactlisted\WS_FTP.LOG --> 203.152.50.201 /eft/contactlisted WS_FTP.LOG
2005.02.16 10:00 B W:\contactlisted\add_contact.asp --> 172.32.100.21 /eft/contactlisted add_contact.asp
2005.02.16 10:00 B W:\contactlisted\add_contact.asp.bak --> 172.32.100.21 /eft/contactlisted add_contact.asp.bak
2005.02.16 10:00 B W:\contactlisted\add_newlisted.asp --> 172.32.100.21 /eft/contactlisted add_newlisted.asp
2005.02.16 10:00 B W:\contactlisted\add_newlisted.asp.bak --> 172.32.100.21 /eft/contactlisted add_newlisted.asp.bak
2005.02.16 10:00 B W:\contactlisted\answer_listed.asp --> 172.32.100.21 /eft/contactlisted answer_listed.asp
2005.02.16 10:00 B W:\contactlisted\answer_listed.asp.bak --> 172.32.100.21 /eft/contactlisted answer_listed.asp.bak
2005.02.16 10:00 B W:\contactlisted\calendar_event.asp --> 172.32.100.21 /eft/contactlisted calendar_event.asp
2005.02.16 10:00 B W:\contactlisted\calendar_event.asp.bak --> 172.32.100.21 /eft/contactlisted calendar_event.asp.bak
2005.02.16 10:00 B W:\contactlisted\confirmuser.asp --> 172.32.100.21 /eft/contactlisted confirmuser.asp
2005.02.16 10:00 B W:\contactlisted\confirmuser.asp.bak --> 172.32.100.21 /eft/contactlisted confirmuser.asp.bak
2005.02.16 10:00 B W:\contactlisted\contact_detail.asp --> 172.32.100.21 /eft/contactlisted contact_detail.asp
2005.02.16 10:00 B W:\contactlisted\contact_detail.asp.bak --> 172.32.100.21 /eft/contactlisted contact_detail.asp.bak
2005.02.16 10:00 B W:\contactlisted\contact_listed.asp --> 172.32.100.21 /eft/contactlisted contact_listed.asp
2005.02.16 10:00 B W:\contactlisted\contact_listed.asp.bak --> 172.32.100.21 /eft/contactlisted contact_listed.asp.bak
2005.02.16 10:00 B W:\contactlisted\edit_ans.asp --> 172.32.100.21 /eft/contactlisted edit_ans.asp
2005.02.16 10:00 B W:\contactlisted\edit_ans.asp.bak --> 172.32.100.21 /eft/contactlisted edit_ans.asp.bak
2005.02.16 10:00 B W:\contactlisted\edit_question.asp --> 172.32.100.21 /eft/contactlisted edit_question.asp
2005.02.16 10:00 B W:\contactlisted\edit_question.asp.bak --> 172.32.100.21 /eft/contactlisted edit_question.asp.bak
2005.02.16 10:00 B W:\contactlisted\login.asp --> 172.32.100.21 /eft/contactlisted login.asp
2005.02.16 10:00 B W:\contactlisted\login.asp.bak --> 172.32.100.21 /eft/contactlisted login.asp.bak
2005.02.16 10:00 B W:\contactlisted\logoff.asp --> 172.32.100.21 /eft/contactlisted logoff.asp
2005.02.16 10:00 B W:\contactlisted\memberalert.asp --> 172.32.100.21 /eft/contactlisted memberalert.asp
2005.02.16 10:00 B W:\contactlisted\memberalert.asp.bak --> 172.32.100.21 /eft/contactlisted memberalert.asp.bak
2005.02.16 10:00 B W:\contactlisted\newmember.asp --> 172.32.100.21 /eft/contactlisted newmember.asp
2005.02.16 10:00 B W:\contactlisted\newmember.asp.bak --> 172.32.100.21 /eft/contactlisted newmember.asp.bak
2005.02.16 10:00 B W:\contactlisted\test.asp.bak --> 172.32.100.21 /eft/contactlisted test.asp.bak
2005.02.16 10:00 B W:\contactlisted\WS_FTP.LOG --> 172.32.100.21 /eft/contactlisted WS_FTP.LOG
2005.02.16 10:03 B W:\contactlisted\add_contact.asp --> 133.18.1.33 /eft/contactlisted add_contact.asp
2005.02.16 10:03 B W:\contactlisted\add_contact.asp.bak --> 133.18.1.33 /eft/contactlisted add_contact.asp.bak
2005.02.16 10:03 B W:\contactlisted\add_newlisted.asp --> 133.18.1.33 /eft/contactlisted add_newlisted.asp
2005.02.16 10:03 B W:\contactlisted\add_newlisted.asp.bak --> 133.18.1.33 /eft/contactlisted add_newlisted.asp.bak
2005.02.16 10:03 B W:\contactlisted\answer_listed.asp --> 133.18.1.33 /eft/contactlisted answer_listed.asp
2005.02.16 10:03 B W:\contactlisted\answer_listed.asp.bak --> 133.18.1.33 /eft/contactlisted answer_listed.asp.bak
2005.02.16 10:03 B W:\contactlisted\calendar_event.asp --> 133.18.1.33 /eft/contactlisted calendar_event.asp
2005.02.16 10:03 B W:\contactlisted\calendar_event.asp.bak --> 133.18.1.33 /eft/contactlisted calendar_event.asp.bak
2005.02.16 10:03 B W:\contactlisted\confirmuser.asp --> 133.18.1.33 /eft/contactlisted confirmuser.asp
2005.02.16 10:03 B W:\contactlisted\confirmuser.asp.bak --> 133.18.1.33 /eft/contactlisted confirmuser.asp.bak
2005.02.16 10:03 B W:\contactlisted\contact_detail.asp --> 133.18.1.33 /eft/contactlisted contact_detail.asp
2005.02.16 10:03 B W:\contactlisted\contact_detail.asp.bak --> 133.18.1.33 /eft/contactlisted contact_detail.asp.bak
2005.02.16 10:03 B W:\contactlisted\contact_listed.asp --> 133.18.1.33 /eft/contactlisted contact_listed.asp
2005.02.16 10:03 B W:\contactlisted\contact_listed.asp.bak --> 133.18.1.33 /eft/contactlisted contact_listed.asp.bak
2005.02.16 10:03 B W:\contactlisted\edit_ans.asp --> 133.18.1.33 /eft/contactlisted edit_ans.asp
2005.02.16 10:03 B W:\contactlisted\edit_ans.asp.bak --> 133.18.1.33 /eft/contactlisted edit_ans.asp.bak
2005.02.16 10:03 B W:\contactlisted\edit_question.asp --> 133.18.1.33 /eft/contactlisted edit_question.asp
2005.02.16 10:03 B W:\contactlisted\edit_question.asp.bak --> 133.18.1.33 /eft/contactlisted edit_question.asp.bak
2005.02.16 10:03 B W:\contactlisted\login.asp --> 133.18.1.33 /eft/contactlisted login.asp
2005.02.16 10:03 B W:\contactlisted\login.asp.bak --> 133.18.1.33 /eft/contactlisted login.asp.bak
2005.02.16 10:03 B W:\contactlisted\logoff.asp --> 133.18.1.33 /eft/contactlisted logoff.asp
2005.02.16 10:03 B W:\contactlisted\memberalert.asp --> 133.18.1.33 /eft/contactlisted memberalert.asp
2005.02.16 10:03 B W:\contactlisted\memberalert.asp.bak --> 133.18.1.33 /eft/contactlisted memberalert.asp.bak
2005.02.16 10:03 B W:\contactlisted\newmember.asp --> 133.18.1.33 /eft/contactlisted newmember.asp
2005.02.16 10:03 B W:\contactlisted\newmember.asp.bak --> 133.18.1.33 /eft/contactlisted newmember.asp.bak
2005.02.16 10:03 B W:\contactlisted\test.asp.bak --> 133.18.1.33 /eft/contactlisted test.asp.bak
2005.02.16 10:03 B W:\contactlisted\WS_FTP.LOG --> 133.18.1.33 /eft/contactlisted WS_FTP.LOG
2005.02.16 10:04 B W:\contactlisted\add_contact.asp --> 172.32.233.13 /eft/contactlisted add_contact.asp
2005.02.16 10:04 B W:\contactlisted\add_contact.asp.bak --> 172.32.233.13 /eft/contactlisted add_contact.asp.bak
2005.02.16 10:04 B W:\contactlisted\add_newlisted.asp --> 172.32.233.13 /eft/contactlisted add_newlisted.asp
2005.02.16 10:04 B W:\contactlisted\add_newlisted.asp.bak --> 172.32.233.13 /eft/contactlisted add_newlisted.asp.bak
2005.02.16 10:04 B W:\contactlisted\answer_listed.asp --> 172.32.233.13 /eft/contactlisted answer_listed.asp
2005.02.16 10:04 B W:\contactlisted\answer_listed.asp.bak --> 172.32.233.13 /eft/contactlisted answer_listed.asp.bak
2005.02.16 10:04 B W:\contactlisted\calendar_event.asp --> 172.32.233.13 /eft/contactlisted calendar_event.asp
2005.02.16 10:04 B W:\contactlisted\calendar_event.asp.bak --> 172.32.233.13 /eft/contactlisted calendar_event.asp.bak
2005.02.16 10:04 B W:\contactlisted\confirmuser.asp --> 172.32.233.13 /eft/contactlisted confirmuser.asp
2005.02.16 10:04 B W:\contactlisted\confirmuser.asp.bak --> 172.32.233.13 /eft/contactlisted confirmuser.asp.bak
2005.02.16 10:04 B W:\contactlisted\contact_detail.asp --> 172.32.233.13 /eft/contactlisted contact_detail.asp
2005.02.16 10:04 B W:\contactlisted\contact_detail.asp.bak --> 172.32.233.13 /eft/contactlisted contact_detail.asp.bak
2005.02.16 10:04 B W:\contactlisted\contact_listed.asp --> 172.32.233.13 /eft/contactlisted contact_listed.asp
2005.02.16 10:04 B W:\contactlisted\contact_listed.asp.bak --> 172.32.233.13 /eft/contactlisted contact_listed.asp.bak
2005.02.16 10:04 B W:\contactlisted\edit_ans.asp --> 172.32.233.13 /eft/contactlisted edit_ans.asp
2005.02.16 10:04 B W:\contactlisted\edit_ans.asp.bak --> 172.32.233.13 /eft/contactlisted edit_ans.asp.bak
2005.02.16 10:04 B W:\contactlisted\edit_question.asp --> 172.32.233.13 /eft/contactlisted edit_question.asp
2005.02.16 10:04 B W:\contactlisted\edit_question.asp.bak --> 172.32.233.13 /eft/contactlisted edit_question.asp.bak
2005.02.16 10:04 B W:\contactlisted\login.asp --> 172.32.233.13 /eft/contactlisted login.asp
2005.02.16 10:04 B W:\contactlisted\login.asp.bak --> 172.32.233.13 /eft/contactlisted login.asp.bak
2005.02.16 10:04 B W:\contactlisted\logoff.asp --> 172.32.233.13 /eft/contactlisted logoff.asp
2005.02.16 10:04 B W:\contactlisted\memberalert.asp --> 172.32.233.13 /eft/contactlisted memberalert.asp
2005.02.16 10:04 B W:\contactlisted\memberalert.asp.bak --> 172.32.233.13 /eft/contactlisted memberalert.asp.bak
2005.02.16 10:04 B W:\contactlisted\newmember.asp --> 172.32.233.13 /eft/contactlisted newmember.asp
2005.02.16 10:04 B W:\contactlisted\newmember.asp.bak --> 172.32.233.13 /eft/contactlisted newmember.asp.bak
2005.02.16 10:04 B W:\contactlisted\test.asp.bak --> 172.32.233.13 /eft/contactlisted test.asp.bak
2005.02.16 10:04 B W:\contactlisted\WS_FTP.LOG --> 172.32.233.13 /eft/contactlisted WS_FTP.LOG
2005.02.16 10:06 B W:\contactlisted\add_contact.asp --> 172.17.102.10 /eft/contactlisted add_contact.asp
2005.02.16 10:06 B W:\contactlisted\add_contact.asp.bak --> 172.17.102.10 /eft/contactlisted add_contact.asp.bak
2005.02.16 10:06 B W:\contactlisted\add_newlisted.asp --> 172.17.102.10 /eft/contactlisted add_newlisted.asp
2005.02.16 10:06 B W:\contactlisted\add_newlisted.asp.bak --> 172.17.102.10 /eft/contactlisted add_newlisted.asp.bak
2005.02.16 10:06 B W:\contactlisted\answer_listed.asp --> 172.17.102.10 /eft/contactlisted answer_listed.asp
2005.02.16 10:06 B W:\contactlisted\answer_listed.asp.bak --> 172.17.102.10 /eft/contactlisted answer_listed.asp.bak
2005.02.16 10:06 B W:\contactlisted\calendar_event.asp --> 172.17.102.10 /eft/contactlisted calendar_event.asp
2005.02.16 10:06 B W:\contactlisted\calendar_event.asp.bak --> 172.17.102.10 /eft/contactlisted calendar_event.asp.bak
2005.02.16 10:07 B W:\contactlisted\confirmuser.asp --> 172.17.102.10 /eft/contactlisted confirmuser.asp
2005.02.16 10:07 B W:\contactlisted\confirmuser.asp.bak --> 172.17.102.10 /eft/contactlisted confirmuser.asp.bak
2005.02.16 10:07 B W:\contactlisted\contact_detail.asp --> 172.17.102.10 /eft/contactlisted contact_detail.asp
2005.02.16 10:07 B W:\contactlisted\contact_detail.asp.bak --> 172.17.102.10 /eft/contactlisted contact_detail.asp.bak
2005.02.16 10:07 B W:\contactlisted\contact_listed.asp --> 172.17.102.10 /eft/contactlisted contact_listed.asp
2005.02.16 10:07 B W:\contactlisted\contact_listed.asp.bak --> 172.17.102.10 /eft/contactlisted contact_listed.asp.bak
2005.02.16 10:07 B W:\contactlisted\edit_ans.asp --> 172.17.102.10 /eft/contactlisted edit_ans.asp
2005.02.16 10:07 B W:\contactlisted\edit_ans.asp.bak --> 172.17.102.10 /eft/contactlisted edit_ans.asp.bak
2005.02.16 10:07 B W:\contactlisted\edit_question.asp --> 172.17.102.10 /eft/contactlisted edit_question.asp
2005.02.16 10:07 B W:\contactlisted\edit_question.asp.bak --> 172.17.102.10 /eft/contactlisted edit_question.asp.bak
2005.02.16 10:07 B W:\contactlisted\login.asp --> 172.17.102.10 /eft/contactlisted login.asp
2005.02.16 10:07 B W:\contactlisted\login.asp.bak --> 172.17.102.10 /eft/contactlisted login.asp.bak
2005.02.16 10:07 B W:\contactlisted\logoff.asp --> 172.17.102.10 /eft/contactlisted logoff.asp
2005.02.16 10:07 B W:\contactlisted\memberalert.asp --> 172.17.102.10 /eft/contactlisted memberalert.asp
2005.02.16 10:07 B W:\contactlisted\memberalert.asp.bak --> 172.17.102.10 /eft/contactlisted memberalert.asp.bak
2005.02.16 10:07 B W:\contactlisted\newmember.asp --> 172.17.102.10 /eft/contactlisted newmember.asp
2005.02.16 10:07 B W:\contactlisted\newmember.asp.bak --> 172.17.102.10 /eft/contactlisted newmember.asp.bak
2005.02.16 10:07 B W:\contactlisted\test.asp.bak --> 172.17.102.10 /eft/contactlisted test.asp.bak
2005.02.16 10:07 B W:\contactlisted\WS_FTP.LOG --> 172.17.102.10 /eft/contactlisted WS_FTP.LOG
2005.02.16 10:08 B W:\contactlisted\add_contact.asp --> 192.168.201.11 /eft/contactlisted add_contact.asp
2005.02.16 10:08 B W:\contactlisted\add_contact.asp.bak --> 192.168.201.11 /eft/contactlisted add_contact.asp.bak
2005.02.16 10:08 B W:\contactlisted\add_newlisted.asp --> 192.168.201.11 /eft/contactlisted add_newlisted.asp
2005.02.16 10:08 B W:\contactlisted\add_newlisted.asp.bak --> 192.168.201.11 /eft/contactlisted add_newlisted.asp.bak
2005.02.16 10:08 B W:\contactlisted\answer_listed.asp --> 192.168.201.11 /eft/contactlisted answer_listed.asp
2005.02.16 10:08 B W:\contactlisted\answer_listed.asp.bak --> 192.168.201.11 /eft/contactlisted answer_listed.asp.bak
2005.02.16 10:08 B W:\contactlisted\calendar_event.asp --> 192.168.201.11 /eft/contactlisted calendar_event.asp
2005.02.16 10:08 B W:\contactlisted\calendar_event.asp.bak --> 192.168.201.11 /eft/contactlisted calendar_event.asp.bak
2005.02.16 10:08 B W:\contactlisted\confirmuser.asp --> 192.168.201.11 /eft/contactlisted confirmuser.asp
2005.02.16 10:08 B W:\contactlisted\confirmuser.asp.bak --> 192.168.201.11 /eft/contactlisted confirmuser.asp.bak
2005.02.16 10:08 B W:\contactlisted\contact_detail.asp --> 192.168.201.11 /eft/contactlisted contact_detail.asp
2005.02.16 10:08 B W:\contactlisted\contact_detail.asp.bak --> 192.168.201.11 /eft/contactlisted contact_detail.asp.bak
2005.02.16 10:09 B W:\contactlisted\contact_listed.asp --> 192.168.201.11 /eft/contactlisted contact_listed.asp
2005.02.16 10:09 B W:\contactlisted\contact_listed.asp.bak --> 192.168.201.11 /eft/contactlisted contact_listed.asp.bak
2005.02.16 10:09 B W:\contactlisted\edit_ans.asp --> 192.168.201.11 /eft/contactlisted edit_ans.asp
2005.02.16 10:09 B W:\contactlisted\edit_ans.asp.bak --> 192.168.201.11 /eft/contactlisted edit_ans.asp.bak
2005.02.16 10:09 B W:\contactlisted\edit_question.asp --> 192.168.201.11 /eft/contactlisted edit_question.asp
2005.02.16 10:09 B W:\contactlisted\edit_question.asp.bak --> 192.168.201.11 /eft/contactlisted edit_question.asp.bak
2005.02.16 10:09 B W:\contactlisted\login.asp --> 192.168.201.11 /eft/contactlisted login.asp
2005.02.16 10:09 B W:\contactlisted\login.asp.bak --> 192.168.201.11 /eft/contactlisted login.asp.bak
2005.02.16 10:09 B W:\contactlisted\logoff.asp --> 192.168.201.11 /eft/contactlisted logoff.asp
2005.02.16 10:09 B W:\contactlisted\memberalert.asp --> 192.168.201.11 /eft/contactlisted memberalert.asp
2005.02.16 10:09 B W:\contactlisted\memberalert.asp.bak --> 192.168.201.11 /eft/contactlisted memberalert.asp.bak
2005.02.16 10:09 B W:\contactlisted\newmember.asp --> 192.168.201.11 /eft/contactlisted newmember.asp
2005.02.16 10:09 B W:\contactlisted\newmember.asp.bak --> 192.168.201.11 /eft/contactlisted newmember.asp.bak
2005.02.16 10:09 B W:\contactlisted\test.asp.bak --> 192.168.201.11 /eft/contactlisted test.asp.bak
2005.02.16 10:09 B W:\contactlisted\WS_FTP.LOG --> 192.168.201.11 /eft/contactlisted WS_FTP.LOG
2005.02.16 10:10 B W:\contactlisted\add_contact.asp --> 172.16.8.81 /eft/contactlisted add_contact.asp
2005.02.16 10:10 B W:\contactlisted\add_contact.asp.bak --> 172.16.8.81 /eft/contactlisted add_contact.asp.bak
2005.02.16 10:10 B W:\contactlisted\add_newlisted.asp --> 172.16.8.81 /eft/contactlisted add_newlisted.asp
2005.02.16 10:10 B W:\contactlisted\add_newlisted.asp.bak --> 172.16.8.81 /eft/contactlisted add_newlisted.asp.bak
2005.02.16 10:10 B W:\contactlisted\answer_listed.asp --> 172.16.8.81 /eft/contactlisted answer_listed.asp
2005.02.16 10:10 B W:\contactlisted\answer_listed.asp.bak --> 172.16.8.81 /eft/contactlisted answer_listed.asp.bak
2005.02.16 10:10 B W:\contactlisted\calendar_event.asp --> 172.16.8.81 /eft/contactlisted calendar_event.asp
2005.02.16 10:10 B W:\contactlisted\calendar_event.asp.bak --> 172.16.8.81 /eft/contactlisted calendar_event.asp.bak
2005.02.16 10:10 B W:\contactlisted\confirmuser.asp --> 172.16.8.81 /eft/contactlisted confirmuser.asp
2005.02.16 10:10 B W:\contactlisted\confirmuser.asp.bak --> 172.16.8.81 /eft/contactlisted confirmuser.asp.bak
2005.02.16 10:10 B W:\contactlisted\contact_detail.asp --> 172.16.8.81 /eft/contactlisted contact_detail.asp
2005.02.16 10:10 B W:\contactlisted\contact_detail.asp.bak --> 172.16.8.81 /eft/contactlisted contact_detail.asp.bak
2005.02.16 10:10 B W:\contactlisted\contact_listed.asp --> 172.16.8.81 /eft/contactlisted contact_listed.asp
2005.02.16 10:10 B W:\contactlisted\contact_listed.asp.bak --> 172.16.8.81 /eft/contactlisted contact_listed.asp.bak
2005.02.16 10:10 B W:\contactlisted\edit_ans.asp --> 172.16.8.81 /eft/contactlisted edit_ans.asp
2005.02.16 10:10 B W:\contactlisted\edit_ans.asp.bak --> 172.16.8.81 /eft/contactlisted edit_ans.asp.bak
2005.02.16 10:11 B W:\contactlisted\edit_question.asp --> 172.16.8.81 /eft/contactlisted edit_question.asp
2005.02.16 10:11 B W:\contactlisted\edit_question.asp.bak --> 172.16.8.81 /eft/contactlisted edit_question.asp.bak
2005.02.16 10:11 B W:\contactlisted\login.asp --> 172.16.8.81 /eft/contactlisted login.asp
2005.02.16 10:11 B W:\contactlisted\login.asp.bak --> 172.16.8.81 /eft/contactlisted login.asp.bak
2005.02.16 10:11 B W:\contactlisted\logoff.asp --> 172.16.8.81 /eft/contactlisted logoff.asp
2005.02.16 10:11 B W:\contactlisted\memberalert.asp --> 172.16.8.81 /eft/contactlisted memberalert.asp
2005.02.16 10:11 B W:\contactlisted\memberalert.asp.bak --> 172.16.8.81 /eft/contactlisted memberalert.asp.bak
2005.02.16 10:11 B W:\contactlisted\newmember.asp --> 172.16.8.81 /eft/contactlisted newmember.asp
2005.02.16 10:11 B W:\contactlisted\newmember.asp.bak --> 172.16.8.81 /eft/contactlisted newmember.asp.bak
2005.02.16 10:11 B W:\contactlisted\test.asp.bak --> 172.16.8.81 /eft/contactlisted test.asp.bak
2005.02.16 10:11 B W:\contactlisted\WS_FTP.LOG --> 172.16.8.81 /eft/contactlisted WS_FTP.LOG
2005.02.16 10:13 B W:\contactlisted\add_contact.asp --> 138.1.1.91 /eft/contactlisted add_contact.asp
2005.02.16 10:13 B W:\contactlisted\add_contact.asp.bak --> 138.1.1.91 /eft/contactlisted add_contact.asp.bak
2005.02.16 10:13 B W:\contactlisted\add_newlisted.asp --> 138.1.1.91 /eft/contactlisted add_newlisted.asp
2005.02.16 10:13 B W:\contactlisted\add_newlisted.asp.bak --> 138.1.1.91 /eft/contactlisted add_newlisted.asp.bak
2005.02.16 10:13 B W:\contactlisted\answer_listed.asp --> 138.1.1.91 /eft/contactlisted answer_listed.asp
2005.02.16 10:13 B W:\contactlisted\answer_listed.asp.bak --> 138.1.1.91 /eft/contactlisted answer_listed.asp.bak
2005.02.16 10:13 B W:\contactlisted\calendar_event.asp --> 138.1.1.91 /eft/contactlisted calendar_event.asp
2005.02.16 10:14 B W:\contactlisted\calendar_event.asp.bak --> 138.1.1.91 /eft/contactlisted calendar_event.asp.bak
2005.02.16 10:14 B W:\contactlisted\confirmuser.asp --> 138.1.1.91 /eft/contactlisted confirmuser.asp
2005.02.16 10:14 B W:\contactlisted\confirmuser.asp.bak --> 138.1.1.91 /eft/contactlisted confirmuser.asp.bak
2005.02.16 10:14 B W:\contactlisted\contact_detail.asp --> 138.1.1.91 /eft/contactlisted contact_detail.asp
2005.02.16 10:14 B W:\contactlisted\contact_detail.asp.bak --> 138.1.1.91 /eft/contactlisted contact_detail.asp.bak
2005.02.16 10:14 B W:\contactlisted\contact_listed.asp --> 138.1.1.91 /eft/contactlisted contact_listed.asp
2005.02.16 10:14 B W:\contactlisted\contact_listed.asp.bak --> 138.1.1.91 /eft/contactlisted contact_listed.asp.bak
2005.02.16 10:14 B W:\contactlisted\edit_ans.asp --> 138.1.1.91 /eft/contactlisted edit_ans.asp
2005.02.16 10:14 B W:\contactlisted\edit_ans.asp.bak --> 138.1.1.91 /eft/contactlisted edit_ans.asp.bak
2005.02.16 10:14 B W:\contactlisted\edit_question.asp --> 138.1.1.91 /eft/contactlisted edit_question.asp
2005.02.16 10:14 B W:\contactlisted\edit_question.asp.bak --> 138.1.1.91 /eft/contactlisted edit_question.asp.bak
2005.02.16 10:14 B W:\contactlisted\login.asp --> 138.1.1.91 /eft/contactlisted login.asp
2005.02.16 10:14 B W:\contactlisted\login.asp.bak --> 138.1.1.91 /eft/contactlisted login.asp.bak
2005.02.16 10:14 B W:\contactlisted\logoff.asp --> 138.1.1.91 /eft/contactlisted logoff.asp
2005.02.16 10:14 B W:\contactlisted\memberalert.asp --> 138.1.1.91 /eft/contactlisted memberalert.asp
2005.02.16 10:14 B W:\contactlisted\memberalert.asp.bak --> 138.1.1.91 /eft/contactlisted memberalert.asp.bak
2005.02.16 10:14 B W:\contactlisted\newmember.asp --> 138.1.1.91 /eft/contactlisted newmember.asp
2005.02.16 10:14 B W:\contactlisted\newmember.asp.bak --> 138.1.1.91 /eft/contactlisted newmember.asp.bak
2005.02.16 10:15 B W:\contactlisted\test.asp.bak --> 138.1.1.91 /eft/contactlisted test.asp.bak
2005.02.16 10:15 B W:\contactlisted\WS_FTP.LOG --> 138.1.1.91 /eft/contactlisted WS_FTP.LOG
2005.02.16 10:16 B W:\contactlisted\add_contact.asp --> 172.17.10.241 /eft/contactlisted add_contact.asp
2005.02.16 10:16 B W:\contactlisted\add_contact.asp.bak --> 172.17.10.241 /eft/contactlisted add_contact.asp.bak
2005.02.16 10:16 B W:\contactlisted\add_newlisted.asp --> 172.17.10.241 /eft/contactlisted add_newlisted.asp
2005.02.16 10:16 B W:\contactlisted\add_newlisted.asp.bak --> 172.17.10.241 /eft/contactlisted add_newlisted.asp.bak
2005.02.16 10:17 B W:\contactlisted\answer_listed.asp --> 172.17.10.241 /eft/contactlisted answer_listed.asp
2005.02.16 10:17 B W:\contactlisted\answer_listed.asp.bak --> 172.17.10.241 /eft/contactlisted answer_listed.asp.bak
2005.02.16 10:17 B W:\contactlisted\calendar_event.asp --> 172.17.10.241 /eft/contactlisted calendar_event.asp
2005.02.16 10:17 B W:\contactlisted\calendar_event.asp.bak --> 172.17.10.241 /eft/contactlisted calendar_event.asp.bak
2005.02.16 10:17 B W:\contactlisted\confirmuser.asp --> 172.17.10.241 /eft/contactlisted confirmuser.asp
2005.02.16 10:17 B W:\contactlisted\confirmuser.asp.bak --> 172.17.10.241 /eft/contactlisted confirmuser.asp.bak
2005.02.16 10:17 B W:\contactlisted\contact_detail.asp --> 172.17.10.241 /eft/contactlisted contact_detail.asp
2005.02.16 10:17 B W:\contactlisted\contact_detail.asp.bak --> 172.17.10.241 /eft/contactlisted contact_detail.asp.bak
2005.02.16 10:17 B W:\contactlisted\contact_listed.asp --> 172.17.10.241 /eft/contactlisted contact_listed.asp
2005.02.16 10:17 B W:\contactlisted\contact_listed.asp.bak --> 172.17.10.241 /eft/contactlisted contact_listed.asp.bak
2005.02.16 10:17 B W:\contactlisted\edit_ans.asp --> 172.17.10.241 /eft/contactlisted edit_ans.asp
2005.02.16 10:17 B W:\contactlisted\edit_ans.asp.bak --> 172.17.10.241 /eft/contactlisted edit_ans.asp.bak
2005.02.16 10:17 B W:\contactlisted\edit_question.asp --> 172.17.10.241 /eft/contactlisted edit_question.asp
2005.02.16 10:17 B W:\contactlisted\edit_question.asp.bak --> 172.17.10.241 /eft/contactlisted edit_question.asp.bak
2005.02.16 10:17 B W:\contactlisted\login.asp --> 172.17.10.241 /eft/contactlisted login.asp
2005.02.16 10:18 B W:\contactlisted\login.asp.bak --> 172.17.10.241 /eft/contactlisted login.asp.bak
2005.02.16 10:18 B W:\contactlisted\logoff.asp --> 172.17.10.241 /eft/contactlisted logoff.asp
2005.02.16 10:18 B W:\contactlisted\memberalert.asp --> 172.17.10.241 /eft/contactlisted memberalert.asp
2005.02.16 10:18 B W:\contactlisted\memberalert.asp.bak --> 172.17.10.241 /eft/contactlisted memberalert.asp.bak
2005.02.16 10:18 B W:\contactlisted\newmember.asp --> 172.17.10.241 /eft/contactlisted newmember.asp
2005.02.16 10:18 B W:\contactlisted\newmember.asp.bak --> 172.17.10.241 /eft/contactlisted newmember.asp.bak
2005.02.16 10:18 B W:\contactlisted\test.asp.bak --> 172.17.10.241 /eft/contactlisted test.asp.bak
2005.02.16 10:18 B W:\contactlisted\WS_FTP.LOG --> 172.17.10.241 /eft/contactlisted WS_FTP.LOG
2005.02.16 10:20 B W:\contactlisted\add_contact.asp --> 198.47.1.1 /eft/contactlisted add_contact.asp
2005.02.16 10:20 B W:\contactlisted\add_contact.asp.bak --> 198.47.1.1 /eft/contactlisted add_contact.asp.bak
2005.02.16 10:20 B W:\contactlisted\add_newlisted.asp --> 198.47.1.1 /eft/contactlisted add_newlisted.asp
2005.02.16 10:20 B W:\contactlisted\add_newlisted.asp.bak --> 198.47.1.1 /eft/contactlisted add_newlisted.asp.bak
2005.02.16 10:20 B W:\contactlisted\answer_listed.asp --> 198.47.1.1 /eft/contactlisted answer_listed.asp
2005.02.16 10:20 B W:\contactlisted\answer_listed.asp.bak --> 198.47.1.1 /eft/contactlisted answer_listed.asp.bak
2005.02.16 10:21 B W:\contactlisted\calendar_event.asp --> 198.47.1.1 /eft/contactlisted calendar_event.asp
2005.02.16 10:21 B W:\contactlisted\calendar_event.asp.bak --> 198.47.1.1 /eft/contactlisted calendar_event.asp.bak
2005.02.16 10:21 B W:\contactlisted\confirmuser.asp --> 198.47.1.1 /eft/contactlisted confirmuser.asp
2005.02.16 10:21 B W:\contactlisted\confirmuser.asp.bak --> 198.47.1.1 /eft/contactlisted confirmuser.asp.bak
2005.02.16 10:21 B W:\contactlisted\contact_detail.asp --> 198.47.1.1 /eft/contactlisted contact_detail.asp
2005.02.16 10:21 B W:\contactlisted\contact_detail.asp.bak --> 198.47.1.1 /eft/contactlisted contact_detail.asp.bak
2005.02.16 10:21 B W:\contactlisted\contact_listed.asp --> 198.47.1.1 /eft/contactlisted contact_listed.asp
2005.02.16 10:21 B W:\contactlisted\contact_listed.asp.bak --> 198.47.1.1 /eft/contactlisted contact_listed.asp.bak
2005.02.16 10:21 B W:\contactlisted\edit_ans.asp --> 198.47.1.1 /eft/contactlisted edit_ans.asp
2005.02.16 10:21 B W:\contactlisted\edit_ans.asp.bak --> 198.47.1.1 /eft/contactlisted edit_ans.asp.bak
2005.02.16 10:21 B W:\contactlisted\edit_question.asp --> 198.47.1.1 /eft/contactlisted edit_question.asp
2005.02.16 10:21 B W:\contactlisted\edit_question.asp.bak --> 198.47.1.1 /eft/contactlisted edit_question.asp.bak
2005.02.16 10:21 B W:\contactlisted\login.asp --> 198.47.1.1 /eft/contactlisted login.asp
2005.02.16 10:21 B W:\contactlisted\login.asp.bak --> 198.47.1.1 /eft/contactlisted login.asp.bak
2005.02.16 10:21 B W:\contactlisted\logoff.asp --> 198.47.1.1 /eft/contactlisted logoff.asp
2005.02.16 10:21 B W:\contactlisted\memberalert.asp --> 198.47.1.1 /eft/contactlisted memberalert.asp
2005.02.16 10:21 B W:\contactlisted\memberalert.asp.bak --> 198.47.1.1 /eft/contactlisted memberalert.asp.bak
2005.02.16 10:21 B W:\contactlisted\newmember.asp --> 198.47.1.1 /eft/contactlisted newmember.asp
2005.02.16 10:21 B W:\contactlisted\newmember.asp.bak --> 198.47.1.1 /eft/contactlisted newmember.asp.bak
2005.02.16 10:21 B W:\contactlisted\test.asp.bak --> 198.47.1.1 /eft/contactlisted test.asp.bak
2005.02.16 10:22 B W:\contactlisted\WS_FTP.LOG --> 198.47.1.1 /eft/contactlisted WS_FTP.LOG
2005.02.16 10:23 B W:\contactlisted\add_contact.asp --> 202.5.92.5 /eft/contactlisted add_contact.asp
2005.02.16 10:23 B W:\contactlisted\add_contact.asp.bak --> 202.5.92.5 /eft/contactlisted add_contact.asp.bak
2005.02.16 10:23 B W:\contactlisted\add_newlisted.asp --> 202.5.92.5 /eft/contactlisted add_newlisted.asp
2005.02.16 10:23 B W:\contactlisted\add_newlisted.asp.bak --> 202.5.92.5 /eft/contactlisted add_newlisted.asp.bak
2005.02.16 10:23 B W:\contactlisted\answer_listed.asp --> 202.5.92.5 /eft/contactlisted answer_listed.asp
2005.02.16 10:23 B W:\contactlisted\answer_listed.asp.bak --> 202.5.92.5 /eft/contactlisted answer_listed.asp.bak
2005.02.16 10:23 B W:\contactlisted\calendar_event.asp --> 202.5.92.5 /eft/contactlisted calendar_event.asp
2005.02.16 10:23 B W:\contactlisted\calendar_event.asp.bak --> 202.5.92.5 /eft/contactlisted calendar_event.asp.bak
2005.02.16 10:23 B W:\contactlisted\confirmuser.asp --> 202.5.92.5 /eft/contactlisted confirmuser.asp
2005.02.16 10:23 B W:\contactlisted\confirmuser.asp.bak --> 202.5.92.5 /eft/contactlisted confirmuser.asp.bak
2005.02.16 10:23 B W:\contactlisted\contact_detail.asp --> 202.5.92.5 /eft/contactlisted contact_detail.asp
2005.02.16 10:23 B W:\contactlisted\contact_detail.asp.bak --> 202.5.92.5 /eft/contactlisted contact_detail.asp.bak
2005.02.16 10:23 B W:\contactlisted\contact_listed.asp --> 202.5.92.5 /eft/contactlisted contact_listed.asp
2005.02.16 10:23 B W:\contactlisted\contact_listed.asp.bak --> 202.5.92.5 /eft/contactlisted contact_listed.asp.bak
2005.02.16 10:23 B W:\contactlisted\edit_ans.asp --> 202.5.92.5 /eft/contactlisted edit_ans.asp
2005.02.16 10:23 B W:\contactlisted\edit_ans.asp.bak --> 202.5.92.5 /eft/contactlisted edit_ans.asp.bak
2005.02.16 10:23 B W:\contactlisted\edit_question.asp --> 202.5.92.5 /eft/contactlisted edit_question.asp
2005.02.16 10:23 B W:\contactlisted\edit_question.asp.bak --> 202.5.92.5 /eft/contactlisted edit_question.asp.bak
2005.02.16 10:23 B W:\contactlisted\login.asp --> 202.5.92.5 /eft/contactlisted login.asp
2005.02.16 10:23 B W:\contactlisted\login.asp.bak --> 202.5.92.5 /eft/contactlisted login.asp.bak
2005.02.16 10:23 B W:\contactlisted\logoff.asp --> 202.5.92.5 /eft/contactlisted logoff.asp
2005.02.16 10:23 B W:\contactlisted\memberalert.asp --> 202.5.92.5 /eft/contactlisted memberalert.asp
2005.02.16 10:23 B W:\contactlisted\memberalert.asp.bak --> 202.5.92.5 /eft/contactlisted memberalert.asp.bak
2005.02.16 10:23 B W:\contactlisted\newmember.asp --> 202.5.92.5 /eft/contactlisted newmember.asp
2005.02.16 10:23 B W:\contactlisted\newmember.asp.bak --> 202.5.92.5 /eft/contactlisted newmember.asp.bak
2005.02.16 10:23 B W:\contactlisted\test.asp.bak --> 202.5.92.5 /eft/contactlisted test.asp.bak
2005.02.16 10:23 B W:\contactlisted\WS_FTP.LOG --> 202.5.92.5 /eft/contactlisted WS_FTP.LOG
2005.02.16 10:24 B W:\contactlisted\add_contact.asp --> 192.155.241.40 /eft/contactlisted add_contact.asp
2005.02.16 10:24 B W:\contactlisted\add_contact.asp.bak --> 192.155.241.40 /eft/contactlisted add_contact.asp.bak
2005.02.16 10:24 B W:\contactlisted\add_newlisted.asp --> 192.155.241.40 /eft/contactlisted add_newlisted.asp
2005.02.16 10:24 B W:\contactlisted\add_newlisted.asp.bak --> 192.155.241.40 /eft/contactlisted add_newlisted.asp.bak
2005.02.16 10:24 B W:\contactlisted\answer_listed.asp --> 192.155.241.40 /eft/contactlisted answer_listed.asp
2005.02.16 10:24 B W:\contactlisted\answer_listed.asp.bak --> 192.155.241.40 /eft/contactlisted answer_listed.asp.bak
2005.02.16 10:24 B W:\contactlisted\calendar_event.asp --> 192.155.241.40 /eft/contactlisted calendar_event.asp
2005.02.16 10:24 B W:\contactlisted\calendar_event.asp.bak --> 192.155.241.40 /eft/contactlisted calendar_event.asp.bak
2005.02.16 10:24 B W:\contactlisted\confirmuser.asp --> 192.155.241.40 /eft/contactlisted confirmuser.asp
2005.02.16 10:24 B W:\contactlisted\confirmuser.asp.bak --> 192.155.241.40 /eft/contactlisted confirmuser.asp.bak
2005.02.16 10:24 B W:\contactlisted\contact_detail.asp --> 192.155.241.40 /eft/contactlisted contact_detail.asp
2005.02.16 10:24 B W:\contactlisted\contact_detail.asp.bak --> 192.155.241.40 /eft/contactlisted contact_detail.asp.bak
2005.02.16 10:24 B W:\contactlisted\contact_listed.asp --> 192.155.241.40 /eft/contactlisted contact_listed.asp
2005.02.16 10:24 B W:\contactlisted\contact_listed.asp.bak --> 192.155.241.40 /eft/contactlisted contact_listed.asp.bak
2005.02.16 10:24 B W:\contactlisted\edit_ans.asp --> 192.155.241.40 /eft/contactlisted edit_ans.asp
2005.02.16 10:24 B W:\contactlisted\edit_ans.asp.bak --> 192.155.241.40 /eft/contactlisted edit_ans.asp.bak
2005.02.16 10:24 B W:\contactlisted\edit_question.asp --> 192.155.241.40 /eft/contactlisted edit_question.asp
2005.02.16 10:24 B W:\contactlisted\edit_question.asp.bak --> 192.155.241.40 /eft/contactlisted edit_question.asp.bak
2005.02.16 10:24 B W:\contactlisted\login.asp --> 192.155.241.40 /eft/contactlisted login.asp
2005.02.16 10:24 B W:\contactlisted\login.asp.bak --> 192.155.241.40 /eft/contactlisted login.asp.bak
2005.02.16 10:24 B W:\contactlisted\logoff.asp --> 192.155.241.40 /eft/contactlisted logoff.asp
2005.02.16 10:24 B W:\contactlisted\memberalert.asp --> 192.155.241.40 /eft/contactlisted memberalert.asp
2005.02.16 10:24 B W:\contactlisted\memberalert.asp.bak --> 192.155.241.40 /eft/contactlisted memberalert.asp.bak
2005.02.16 10:24 B W:\contactlisted\newmember.asp --> 192.155.241.40 /eft/contactlisted newmember.asp
2005.02.16 10:24 B W:\contactlisted\newmember.asp.bak --> 192.155.241.40 /eft/contactlisted newmember.asp.bak
2005.02.16 10:24 B W:\contactlisted\test.asp.bak --> 192.155.241.40 /eft/contactlisted test.asp.bak
2005.02.16 10:24 B W:\contactlisted\WS_FTP.LOG --> 192.155.241.40 /eft/contactlisted WS_FTP.LOG
2005.02.16 10:25 B W:\contactlisted\add_contact.asp --> 192.155.241.41 /eft/contactlisted add_contact.asp
2005.02.16 10:25 B W:\contactlisted\add_contact.asp.bak --> 192.155.241.41 /eft/contactlisted add_contact.asp.bak
2005.02.16 10:25 B W:\contactlisted\add_newlisted.asp --> 192.155.241.41 /eft/contactlisted add_newlisted.asp
2005.02.16 10:25 B W:\contactlisted\add_newlisted.asp.bak --> 192.155.241.41 /eft/contactlisted add_newlisted.asp.bak
2005.02.16 10:25 B W:\contactlisted\answer_listed.asp --> 192.155.241.41 /eft/contactlisted answer_listed.asp
2005.02.16 10:25 B W:\contactlisted\answer_listed.asp.bak --> 192.155.241.41 /eft/contactlisted answer_listed.asp.bak
2005.02.16 10:25 B W:\contactlisted\calendar_event.asp --> 192.155.241.41 /eft/contactlisted calendar_event.asp
2005.02.16 10:25 B W:\contactlisted\calendar_event.asp.bak --> 192.155.241.41 /eft/contactlisted calendar_event.asp.bak
2005.02.16 10:25 B W:\contactlisted\confirmuser.asp --> 192.155.241.41 /eft/contactlisted confirmuser.asp
2005.02.16 10:25 B W:\contactlisted\confirmuser.asp.bak --> 192.155.241.41 /eft/contactlisted confirmuser.asp.bak
2005.02.16 10:25 B W:\contactlisted\contact_detail.asp --> 192.155.241.41 /eft/contactlisted contact_detail.asp
2005.02.16 10:25 B W:\contactlisted\contact_detail.asp.bak --> 192.155.241.41 /eft/contactlisted contact_detail.asp.bak
2005.02.16 10:25 B W:\contactlisted\contact_listed.asp --> 192.155.241.41 /eft/contactlisted contact_listed.asp
2005.02.16 10:25 B W:\contactlisted\contact_listed.asp.bak --> 192.155.241.41 /eft/contactlisted contact_listed.asp.bak
2005.02.16 10:25 B W:\contactlisted\edit_ans.asp --> 192.155.241.41 /eft/contactlisted edit_ans.asp
2005.02.16 10:25 B W:\contactlisted\edit_ans.asp.bak --> 192.155.241.41 /eft/contactlisted edit_ans.asp.bak
2005.02.16 10:25 B W:\contactlisted\edit_question.asp --> 192.155.241.41 /eft/contactlisted edit_question.asp
2005.02.16 10:25 B W:\contactlisted\edit_question.asp.bak --> 192.155.241.41 /eft/contactlisted edit_question.asp.bak
2005.02.16 10:25 B W:\contactlisted\login.asp --> 192.155.241.41 /eft/contactlisted login.asp
2005.02.16 10:25 B W:\contactlisted\login.asp.bak --> 192.155.241.41 /eft/contactlisted login.asp.bak
2005.02.16 10:25 B W:\contactlisted\logoff.asp --> 192.155.241.41 /eft/contactlisted logoff.asp
2005.02.16 10:25 B W:\contactlisted\memberalert.asp --> 192.155.241.41 /eft/contactlisted memberalert.asp
2005.02.16 10:25 B W:\contactlisted\memberalert.asp.bak --> 192.155.241.41 /eft/contactlisted memberalert.asp.bak
2005.02.16 10:25 B W:\contactlisted\newmember.asp --> 192.155.241.41 /eft/contactlisted newmember.asp
2005.02.16 10:25 B W:\contactlisted\newmember.asp.bak --> 192.155.241.41 /eft/contactlisted newmember.asp.bak
2005.02.16 10:25 B W:\contactlisted\test.asp.bak --> 192.155.241.41 /eft/contactlisted test.asp.bak
2005.02.16 10:25 B W:\contactlisted\WS_FTP.LOG --> 192.155.241.41 /eft/contactlisted WS_FTP.LOG
2005.02.16 10:25 B W:\contactlisted\add_contact.asp --> 192.155.241.180 /eft/contactlisted add_contact.asp
2005.02.16 10:25 B W:\contactlisted\add_contact.asp.bak --> 192.155.241.180 /eft/contactlisted add_contact.asp.bak
2005.02.16 10:25 B W:\contactlisted\add_newlisted.asp --> 192.155.241.180 /eft/contactlisted add_newlisted.asp
2005.02.16 10:25 B W:\contactlisted\add_newlisted.asp.bak --> 192.155.241.180 /eft/contactlisted add_newlisted.asp.bak
2005.02.16 10:25 B W:\contactlisted\answer_listed.asp --> 192.155.241.180 /eft/contactlisted answer_listed.asp
2005.02.16 10:25 B W:\contactlisted\answer_listed.asp.bak --> 192.155.241.180 /eft/contactlisted answer_listed.asp.bak
2005.02.16 10:25 B W:\contactlisted\calendar_event.asp --> 192.155.241.180 /eft/contactlisted calendar_event.asp
2005.02.16 10:25 B W:\contactlisted\calendar_event.asp.bak --> 192.155.241.180 /eft/contactlisted calendar_event.asp.bak
2005.02.16 10:25 B W:\contactlisted\confirmuser.asp --> 192.155.241.180 /eft/contactlisted confirmuser.asp
2005.02.16 10:25 B W:\contactlisted\confirmuser.asp.bak --> 192.155.241.180 /eft/contactlisted confirmuser.asp.bak
2005.02.16 10:25 B W:\contactlisted\contact_detail.asp --> 192.155.241.180 /eft/contactlisted contact_detail.asp
2005.02.16 10:25 B W:\contactlisted\contact_detail.asp.bak --> 192.155.241.180 /eft/contactlisted contact_detail.asp.bak
2005.02.16 10:25 B W:\contactlisted\contact_listed.asp --> 192.155.241.180 /eft/contactlisted contact_listed.asp
2005.02.16 10:25 B W:\contactlisted\contact_listed.asp.bak --> 192.155.241.180 /eft/contactlisted contact_listed.asp.bak
2005.02.16 10:25 B W:\contactlisted\edit_ans.asp --> 192.155.241.180 /eft/contactlisted edit_ans.asp
2005.02.16 10:25 B W:\contactlisted\edit_ans.asp.bak --> 192.155.241.180 /eft/contactlisted edit_ans.asp.bak
2005.02.16 10:25 B W:\contactlisted\edit_question.asp --> 192.155.241.180 /eft/contactlisted edit_question.asp
2005.02.16 10:25 B W:\contactlisted\edit_question.asp.bak --> 192.155.241.180 /eft/contactlisted edit_question.asp.bak
2005.02.16 10:25 B W:\contactlisted\login.asp --> 192.155.241.180 /eft/contactlisted login.asp
2005.02.16 10:25 B W:\contactlisted\login.asp.bak --> 192.155.241.180 /eft/contactlisted login.asp.bak
2005.02.16 10:25 B W:\contactlisted\logoff.asp --> 192.155.241.180 /eft/contactlisted logoff.asp
2005.02.16 10:25 B W:\contactlisted\memberalert.asp --> 192.155.241.180 /eft/contactlisted memberalert.asp
2005.02.16 10:25 B W:\contactlisted\memberalert.asp.bak --> 192.155.241.180 /eft/contactlisted memberalert.asp.bak
2005.02.16 10:25 B W:\contactlisted\newmember.asp --> 192.155.241.180 /eft/contactlisted newmember.asp
2005.02.16 10:25 B W:\contactlisted\newmember.asp.bak --> 192.155.241.180 /eft/contactlisted newmember.asp.bak
2005.02.16 10:25 B W:\contactlisted\test.asp.bak --> 192.155.241.180 /eft/contactlisted test.asp.bak
2005.02.16 10:25 B W:\contactlisted\WS_FTP.LOG --> 192.155.241.180 /eft/contactlisted WS_FTP.LOG
2005.02.16 10:26 B W:\contactlisted\add_contact.asp --> 192.168.168.23 /eft/contactlisted add_contact.asp
2005.02.16 10:26 B W:\contactlisted\add_contact.asp.bak --> 192.168.168.23 /eft/contactlisted add_contact.asp.bak
2005.02.16 10:26 B W:\contactlisted\add_newlisted.asp --> 192.168.168.23 /eft/contactlisted add_newlisted.asp
2005.02.16 10:26 B W:\contactlisted\add_newlisted.asp.bak --> 192.168.168.23 /eft/contactlisted add_newlisted.asp.bak
2005.02.16 10:26 B W:\contactlisted\answer_listed.asp --> 192.168.168.23 /eft/contactlisted answer_listed.asp
2005.02.16 10:26 B W:\contactlisted\answer_listed.asp.bak --> 192.168.168.23 /eft/contactlisted answer_listed.asp.bak
2005.02.16 10:26 B W:\contactlisted\calendar_event.asp --> 192.168.168.23 /eft/contactlisted calendar_event.asp
2005.02.16 10:26 B W:\contactlisted\calendar_event.asp.bak --> 192.168.168.23 /eft/contactlisted calendar_event.asp.bak
2005.02.16 10:26 B W:\contactlisted\confirmuser.asp --> 192.168.168.23 /eft/contactlisted confirmuser.asp
2005.02.16 10:26 B W:\contactlisted\confirmuser.asp.bak --> 192.168.168.23 /eft/contactlisted confirmuser.asp.bak
2005.02.16 10:26 B W:\contactlisted\contact_detail.asp --> 192.168.168.23 /eft/contactlisted contact_detail.asp
2005.02.16 10:26 B W:\contactlisted\contact_detail.asp.bak --> 192.168.168.23 /eft/contactlisted contact_detail.asp.bak
2005.02.16 10:26 B W:\contactlisted\contact_listed.asp --> 192.168.168.23 /eft/contactlisted contact_listed.asp
2005.02.16 10:26 B W:\contactlisted\contact_listed.asp.bak --> 192.168.168.23 /eft/contactlisted contact_listed.asp.bak
2005.02.16 10:26 B W:\contactlisted\edit_ans.asp --> 192.168.168.23 /eft/contactlisted edit_ans.asp
2005.02.16 10:26 B W:\contactlisted\edit_ans.asp.bak --> 192.168.168.23 /eft/contactlisted edit_ans.asp.bak
2005.02.16 10:26 B W:\contactlisted\edit_question.asp --> 192.168.168.23 /eft/contactlisted edit_question.asp
2005.02.16 10:26 B W:\contactlisted\edit_question.asp.bak --> 192.168.168.23 /eft/contactlisted edit_question.asp.bak
2005.02.16 10:26 B W:\contactlisted\login.asp --> 192.168.168.23 /eft/contactlisted login.asp
2005.02.16 10:26 B W:\contactlisted\login.asp.bak --> 192.168.168.23 /eft/contactlisted login.asp.bak
2005.02.16 10:26 B W:\contactlisted\logoff.asp --> 192.168.168.23 /eft/contactlisted logoff.asp
2005.02.16 10:26 B W:\contactlisted\memberalert.asp --> 192.168.168.23 /eft/contactlisted memberalert.asp
2005.02.16 10:26 B W:\contactlisted\memberalert.asp.bak --> 192.168.168.23 /eft/contactlisted memberalert.asp.bak
2005.02.16 10:26 B W:\contactlisted\newmember.asp --> 192.168.168.23 /eft/contactlisted newmember.asp
2005.02.16 10:26 B W:\contactlisted\newmember.asp.bak --> 192.168.168.23 /eft/contactlisted newmember.asp.bak
2005.02.16 10:26 B W:\contactlisted\test.asp.bak --> 192.168.168.23 /eft/contactlisted test.asp.bak
2005.02.16 10:26 B W:\contactlisted\WS_FTP.LOG --> 192.168.168.23 /eft/contactlisted WS_FTP.LOG
2005.02.16 10:28 B W:\contactlisted\add_contact.asp --> 192.168.168.6 /eft/contactlisted add_contact.asp
2005.02.16 10:28 B W:\contactlisted\add_contact.asp.bak --> 192.168.168.6 /eft/contactlisted add_contact.asp.bak
2005.02.16 10:28 B W:\contactlisted\add_newlisted.asp --> 192.168.168.6 /eft/contactlisted add_newlisted.asp
2005.02.16 10:28 B W:\contactlisted\add_newlisted.asp.bak --> 192.168.168.6 /eft/contactlisted add_newlisted.asp.bak
2005.02.16 10:28 B W:\contactlisted\answer_listed.asp --> 192.168.168.6 /eft/contactlisted answer_listed.asp
2005.02.16 10:28 B W:\contactlisted\answer_listed.asp.bak --> 192.168.168.6 /eft/contactlisted answer_listed.asp.bak
2005.02.16 10:28 B W:\contactlisted\calendar_event.asp --> 192.168.168.6 /eft/contactlisted calendar_event.asp
2005.02.16 10:28 B W:\contactlisted\calendar_event.asp.bak --> 192.168.168.6 /eft/contactlisted calendar_event.asp.bak
2005.02.16 10:28 B W:\contactlisted\confirmuser.asp --> 192.168.168.6 /eft/contactlisted confirmuser.asp
2005.02.16 10:28 B W:\contactlisted\confirmuser.asp.bak --> 192.168.168.6 /eft/contactlisted confirmuser.asp.bak
2005.02.16 10:28 B W:\contactlisted\contact_detail.asp --> 192.168.168.6 /eft/contactlisted contact_detail.asp
2005.02.16 10:28 B W:\contactlisted\contact_detail.asp.bak --> 192.168.168.6 /eft/contactlisted contact_detail.asp.bak
2005.02.16 10:28 B W:\contactlisted\contact_listed.asp --> 192.168.168.6 /eft/contactlisted contact_listed.asp
2005.02.16 10:28 B W:\contactlisted\contact_listed.asp.bak --> 192.168.168.6 /eft/contactlisted contact_listed.asp.bak
2005.02.16 10:28 B W:\contactlisted\edit_ans.asp --> 192.168.168.6 /eft/contactlisted edit_ans.asp
2005.02.16 10:28 B W:\contactlisted\edit_ans.asp.bak --> 192.168.168.6 /eft/contactlisted edit_ans.asp.bak
2005.02.16 10:28 B W:\contactlisted\edit_question.asp --> 192.168.168.6 /eft/contactlisted edit_question.asp
2005.02.16 10:28 B W:\contactlisted\edit_question.asp.bak --> 192.168.168.6 /eft/contactlisted edit_question.asp.bak
2005.02.16 10:28 B W:\contactlisted\login.asp --> 192.168.168.6 /eft/contactlisted login.asp
2005.02.16 10:28 B W:\contactlisted\login.asp.bak --> 192.168.168.6 /eft/contactlisted login.asp.bak
2005.02.16 10:28 B W:\contactlisted\logoff.asp --> 192.168.168.6 /eft/contactlisted logoff.asp
2005.02.16 10:28 B W:\contactlisted\memberalert.asp --> 192.168.168.6 /eft/contactlisted memberalert.asp
2005.02.16 10:28 B W:\contactlisted\memberalert.asp.bak --> 192.168.168.6 /eft/contactlisted memberalert.asp.bak
2005.02.16 10:28 B W:\contactlisted\newmember.asp --> 192.168.168.6 /eft/contactlisted newmember.asp
2005.02.16 10:28 B W:\contactlisted\newmember.asp.bak --> 192.168.168.6 /eft/contactlisted newmember.asp.bak
2005.02.16 10:28 B W:\contactlisted\test.asp.bak --> 192.168.168.6 /eft/contactlisted test.asp.bak
2005.02.16 10:28 B W:\contactlisted\WS_FTP.LOG --> 192.168.168.6 /eft/contactlisted WS_FTP.LOG
2005.02.16 10:29 B I:\contactlisted\add_contact.asp --> 172.23.101.10 /eft/contactlisted add_contact.asp
2005.02.16 10:29 B I:\contactlisted\add_contact.asp.bak --> 172.23.101.10 /eft/contactlisted add_contact.asp.bak
2005.02.16 10:29 B I:\contactlisted\add_newlisted.asp --> 172.23.101.10 /eft/contactlisted add_newlisted.asp
2005.02.16 10:29 B I:\contactlisted\add_newlisted.asp.bak --> 172.23.101.10 /eft/contactlisted add_newlisted.asp.bak
2005.02.16 10:29 B I:\contactlisted\answer_listed.asp --> 172.23.101.10 /eft/contactlisted answer_listed.asp
2005.02.16 10:29 B I:\contactlisted\answer_listed.asp.bak --> 172.23.101.10 /eft/contactlisted answer_listed.asp.bak
2005.02.16 10:29 B I:\contactlisted\calendar_event.asp --> 172.23.101.10 /eft/contactlisted calendar_event.asp
2005.02.16 10:30 B I:\contactlisted\calendar_event.asp.bak --> 172.23.101.10 /eft/contactlisted calendar_event.asp.bak
2005.02.16 10:30 B I:\contactlisted\confirmuser.asp --> 172.23.101.10 /eft/contactlisted confirmuser.asp
2005.02.16 10:30 B I:\contactlisted\confirmuser.asp.bak --> 172.23.101.10 /eft/contactlisted confirmuser.asp.bak
2005.02.16 10:30 B I:\contactlisted\contact_detail.asp --> 172.23.101.10 /eft/contactlisted contact_detail.asp
2005.02.16 10:30 B I:\contactlisted\contact_detail.asp.bak --> 172.23.101.10 /eft/contactlisted contact_detail.asp.bak
2005.02.16 10:30 B I:\contactlisted\contact_listed.asp --> 172.23.101.10 /eft/contactlisted contact_listed.asp
2005.02.16 10:30 B I:\contactlisted\contact_listed.asp.bak --> 172.23.101.10 /eft/contactlisted contact_listed.asp.bak
2005.02.16 10:30 B I:\contactlisted\edit_ans.asp --> 172.23.101.10 /eft/contactlisted edit_ans.asp
2005.02.16 10:30 B I:\contactlisted\edit_ans.asp.bak --> 172.23.101.10 /eft/contactlisted edit_ans.asp.bak
2005.02.16 10:30 B I:\contactlisted\edit_question.asp --> 172.23.101.10 /eft/contactlisted edit_question.asp
2005.02.16 10:30 B I:\contactlisted\edit_question.asp.bak --> 172.23.101.10 /eft/contactlisted edit_question.asp.bak
2005.02.16 10:30 B I:\contactlisted\login.asp --> 172.23.101.10 /eft/contactlisted login.asp
2005.02.16 10:30 B I:\contactlisted\login.asp.bak --> 172.23.101.10 /eft/contactlisted login.asp.bak
2005.02.16 10:30 B I:\contactlisted\logoff.asp --> 172.23.101.10 /eft/contactlisted logoff.asp
2005.02.16 10:30 B I:\contactlisted\memberalert.asp --> 172.23.101.10 /eft/contactlisted memberalert.asp
2005.02.16 10:30 B I:\contactlisted\memberalert.asp.bak --> 172.23.101.10 /eft/contactlisted memberalert.asp.bak
2005.02.16 10:30 B I:\contactlisted\newmember.asp --> 172.23.101.10 /eft/contactlisted newmember.asp
2005.02.16 10:30 B I:\contactlisted\newmember.asp.bak --> 172.23.101.10 /eft/contactlisted newmember.asp.bak
2005.02.16 10:31 B I:\contactlisted\test.asp.bak --> 172.23.101.10 /eft/contactlisted test.asp.bak
2005.02.16 10:31 B I:\contactlisted\WS_FTP.LOG --> 172.23.101.10 /eft/contactlisted WS_FTP.LOG
2005.02.16 10:33 B I:\contactlisted\add_contact.asp --> 172.23.111.10 /eft/contactlisted add_contact.asp
2005.02.16 10:33 B I:\contactlisted\add_contact.asp.bak --> 172.23.111.10 /eft/contactlisted add_contact.asp.bak
2005.02.16 10:34 B I:\contactlisted\add_newlisted.asp --> 172.23.111.10 /eft/contactlisted add_newlisted.asp
2005.02.16 10:34 B I:\contactlisted\add_newlisted.asp.bak --> 172.23.111.10 /eft/contactlisted add_newlisted.asp.bak
2005.02.16 10:34 B I:\contactlisted\answer_listed.asp --> 172.23.111.10 /eft/contactlisted answer_listed.asp
2005.02.16 10:34 B I:\contactlisted\answer_listed.asp.bak --> 172.23.111.10 /eft/contactlisted answer_listed.asp.bak
2005.02.16 10:34 B I:\contactlisted\calendar_event.asp --> 172.23.111.10 /eft/contactlisted calendar_event.asp
2005.02.16 10:34 B I:\contactlisted\calendar_event.asp.bak --> 172.23.111.10 /eft/contactlisted calendar_event.asp.bak
2005.02.16 10:34 B I:\contactlisted\confirmuser.asp --> 172.23.111.10 /eft/contactlisted confirmuser.asp
2005.02.16 10:34 B I:\contactlisted\confirmuser.asp.bak --> 172.23.111.10 /eft/contactlisted confirmuser.asp.bak
2005.02.16 10:34 B I:\contactlisted\contact_detail.asp --> 172.23.111.10 /eft/contactlisted contact_detail.asp
2005.02.16 10:34 B I:\contactlisted\contact_detail.asp.bak --> 172.23.111.10 /eft/contactlisted contact_detail.asp.bak
2005.02.16 10:34 B I:\contactlisted\contact_listed.asp --> 172.23.111.10 /eft/contactlisted contact_listed.asp
2005.02.16 10:34 B I:\contactlisted\contact_listed.asp.bak --> 172.23.111.10 /eft/contactlisted contact_listed.asp.bak
2005.02.16 10:34 B I:\contactlisted\edit_ans.asp --> 172.23.111.10 /eft/contactlisted edit_ans.asp
2005.02.16 10:34 B I:\contactlisted\edit_ans.asp.bak --> 172.23.111.10 /eft/contactlisted edit_ans.asp.bak
2005.02.16 10:34 B I:\contactlisted\edit_question.asp --> 172.23.111.10 /eft/contactlisted edit_question.asp
2005.02.16 10:34 B I:\contactlisted\edit_question.asp.bak --> 172.23.111.10 /eft/contactlisted edit_question.asp.bak
2005.02.16 10:35 B I:\contactlisted\login.asp --> 172.23.111.10 /eft/contactlisted login.asp
2005.02.16 10:35 B I:\contactlisted\login.asp.bak --> 172.23.111.10 /eft/contactlisted login.asp.bak
2005.02.16 10:35 B I:\contactlisted\logoff.asp --> 172.23.111.10 /eft/contactlisted logoff.asp
2005.02.16 10:35 B I:\contactlisted\memberalert.asp --> 172.23.111.10 /eft/contactlisted memberalert.asp
2005.02.16 10:35 B I:\contactlisted\memberalert.asp.bak --> 172.23.111.10 /eft/contactlisted memberalert.asp.bak
2005.02.16 10:35 B I:\contactlisted\newmember.asp --> 172.23.111.10 /eft/contactlisted newmember.asp
2005.02.16 10:35 B I:\contactlisted\newmember.asp.bak --> 172.23.111.10 /eft/contactlisted newmember.asp.bak
2005.02.16 10:35 B I:\contactlisted\test.asp.bak --> 172.23.111.10 /eft/contactlisted test.asp.bak
2005.02.16 10:35 B I:\contactlisted\WS_FTP.LOG --> 172.23.111.10 /eft/contactlisted WS_FTP.LOG
2005.05.06 17:08 B G:\contactlisted\add_contact.asp --> 172.23.111.10 /ir/contactlisted add_contact.asp
2005.05.06 17:08 B G:\contactlisted\add_contact.asp.bak --> 172.23.111.10 /ir/contactlisted add_contact.asp.bak
2005.05.06 17:08 B G:\contactlisted\add_listedperson.asp --> 172.23.111.10 /ir/contactlisted add_listedperson.asp
2005.05.06 17:08 B G:\contactlisted\add_newlisted.asp --> 172.23.111.10 /ir/contactlisted add_newlisted.asp
2005.05.06 17:08 B G:\contactlisted\add_newlisted.asp.bak --> 172.23.111.10 /ir/contactlisted add_newlisted.asp.bak
2005.05.06 17:08 B G:\contactlisted\answer_listed.asp --> 172.23.111.10 /ir/contactlisted answer_listed.asp
2005.05.06 17:08 B G:\contactlisted\answer_listed.asp.bak --> 172.23.111.10 /ir/contactlisted answer_listed.asp.bak
2005.05.06 17:08 B G:\contactlisted\arrow_r.gif --> 172.23.111.10 /ir/contactlisted arrow_r.gif
2005.05.06 17:08 B G:\contactlisted\blank.gif --> 172.23.111.10 /ir/contactlisted blank.gif
2005.05.06 17:08 B G:\contactlisted\calendar_event.asp --> 172.23.111.10 /ir/contactlisted calendar_event.asp
2005.05.06 17:08 B G:\contactlisted\calendar_event.asp.bak --> 172.23.111.10 /ir/contactlisted calendar_event.asp.bak
2005.05.06 17:09 B G:\contactlisted\confirmuser.asp --> 172.23.111.10 /ir/contactlisted confirmuser.asp
2005.05.06 17:09 B G:\contactlisted\confirmuser.asp.bak --> 172.23.111.10 /ir/contactlisted confirmuser.asp.bak
2005.05.06 17:09 B G:\contactlisted\contact_detail.asp --> 172.23.111.10 /ir/contactlisted contact_detail.asp
2005.05.06 17:09 B G:\contactlisted\contact_detail.asp.bak --> 172.23.111.10 /ir/contactlisted contact_detail.asp.bak
2005.05.06 17:09 B G:\contactlisted\contact_listed.asp --> 172.23.111.10 /ir/contactlisted contact_listed.asp
2005.05.06 17:09 B G:\contactlisted\contact_listed.asp.bak --> 172.23.111.10 /ir/contactlisted contact_listed.asp.bak
2005.05.06 17:09 B G:\contactlisted\edit_ans.asp --> 172.23.111.10 /ir/contactlisted edit_ans.asp
2005.05.06 17:09 B G:\contactlisted\edit_ans.asp.bak --> 172.23.111.10 /ir/contactlisted edit_ans.asp.bak
2005.05.06 17:09 B G:\contactlisted\edit_question.asp --> 172.23.111.10 /ir/contactlisted edit_question.asp
2005.05.06 17:09 B G:\contactlisted\edit_question.asp.bak --> 172.23.111.10 /ir/contactlisted edit_question.asp.bak
2005.05.06 17:09 B G:\contactlisted\forgotpasswd.asp --> 172.23.111.10 /ir/contactlisted forgotpasswd.asp
2005.05.06 17:09 B G:\contactlisted\forgotpasswd_old.asp --> 172.23.111.10 /ir/contactlisted forgotpasswd_old.asp
2005.05.06 17:09 B G:\contactlisted\img.html --> 172.23.111.10 /ir/contactlisted img.html
2005.05.06 17:09 B G:\contactlisted\login.asp --> 172.23.111.10 /ir/contactlisted login.asp
2005.05.06 17:09 B G:\contactlisted\login.asp.bak --> 172.23.111.10 /ir/contactlisted login.asp.bak
2005.05.06 17:09 B G:\contactlisted\logoff.asp --> 172.23.111.10 /ir/contactlisted logoff.asp
2005.05.06 17:09 B G:\contactlisted\memberalert.asp.bak --> 172.23.111.10 /ir/contactlisted memberalert.asp.bak
2005.05.06 17:09 B G:\contactlisted\newmember.asp --> 172.23.111.10 /ir/contactlisted newmember.asp
2005.05.06 17:09 B G:\contactlisted\newmember.asp.bak --> 172.23.111.10 /ir/contactlisted newmember.asp.bak
2005.05.06 17:09 B G:\contactlisted\test.asp.bak --> 172.23.111.10 /ir/contactlisted test.asp.bak
2005.05.06 17:09 B G:\contactlisted\Thumbs.db --> 172.23.111.10 /ir/contactlisted Thumbs.db
2005.05.06 17:09 B G:\contactlisted\WS_FTP.LOG --> 172.23.111.10 /ir/contactlisted WS_FTP.LOG
